V52-Signale-auf-Leitungen/Oszilloskop/ALL0051/F0051CH1.CSV

Record Length,2.500000e+03,,  -0.000001000000,-142.00000,
Sample Interval,2.000000e-09,,  -0.000000998000,-142.00000,
Trigger Point,5.000000000000e+02,,  -0.000000996000,-144.00000,
,,,  -0.000000994000,-142.00000,
,,,  -0.000000992000,-144.00000,
,,,  -0.000000990000,-144.00000,
Source,CH1,,  -0.000000988000,-144.00000,
Vertical Units,V,,  -0.000000986000,-144.00000,
Vertical Scale,5.000000e+01,,  -0.000000984000,-144.00000,
Vertical Offset,-2.000000e+01,,  -0.000000982000,-144.00000,
Horizontal Units,s,,  -0.000000980000,-146.00000,
Horizontal Scale,5.000000e-07,,  -0.000000978000,-142.00000,
Pt Fmt,Y,,  -0.000000976000,-142.00000,
Yzero,0.000000e+00,,  -0.000000974000,-142.00000,
Probe Atten,1.000000e+03,,  -0.000000972000,-144.00000,
Model Number,TDS1001B,,  -0.000000970000,-144.00000,
Serial Number,C051164,,  -0.000000968000,-142.00000,
Firmware Version,FV:v22.01,,  -0.000000966000,-146.00000,
,,,-00.000000964000,-144.00000,
,,,-00.000000962000,-144.00000,
,,,-00.000000960000,-142.00000,
,,,-00.000000958000,-144.00000,
,,,-00.000000956000,-142.00000,
,,,-00.000000954000,-144.00000,
,,,-00.000000952000,-144.00000,
,,,-00.000000950000,-144.00000,
,,,-00.000000948000,-146.00000,
,,,-00.000000946000,-142.00000,
,,,-00.000000944000,-142.00000,
,,,-00.000000942000,-144.00000,
,,,-00.000000940000,-144.00000,
,,,-00.000000938000,-144.00000,
,,,-00.000000936000,-142.00000,
,,,-00.000000934000,-144.00000,
,,,-00.000000932000,-144.00000,
,,,-00.000000930000,-144.00000,
,,,-00.000000928000,-142.00000,
,,,-00.000000926000,-142.00000,
,,,-00.000000924000,-144.00000,
,,,-00.000000922000,-144.00000,
,,,-00.000000920000,-142.00000,
,,,-00.000000918000,-144.00000,
,,,-00.000000916000,-144.00000,
,,,-00.000000914000,-144.00000,
,,,-00.000000912000,-142.00000,
,,,-00.000000910000,-140.00000,
,,,-00.000000908000,-140.00000,
,,,-00.000000906000,-140.00000,
,,,-00.000000904000,-144.00000,
,,,-00.000000902000,-144.00000,
,,,-00.000000900000,-144.00000,
,,,-00.000000898000,-144.00000,
,,,-00.000000896000,-142.00000,
,,,-00.000000894000,-142.00000,
,,,-00.000000892000,-144.00000,
,,,-00.000000890000,-144.00000,
,,,-00.000000888000,-142.00000,
,,,-00.000000886000,-144.00000,
,,,-00.000000884000,-142.00000,
,,,-00.000000882000,-144.00000,
,,,-00.000000880000,-142.00000,
,,,-00.000000878000,-142.00000,
,,,-00.000000876000,-144.00000,
,,,-00.000000874000,-142.00000,
,,,-00.000000872000,-144.00000,
,,,-00.000000870000,-146.00000,
,,,-00.000000868000,-146.00000,
,,,-00.000000866000,-144.00000,
,,,-00.000000864000,-146.00000,
,,,-00.000000862000,-142.00000,
,,,-00.000000860000,-144.00000,
,,,-00.000000858000,-142.00000,
,,,-00.000000856000,-144.00000,
,,,-00.000000854000,-146.00000,
,,,-00.000000852000,-144.00000,
,,,-00.000000850000,-144.00000,
,,,-00.000000848000,-146.00000,
,,,-00.000000846000,-144.00000,
,,,-00.000000844000,-146.00000,
,,,-00.000000842000,-144.00000,
,,,-00.000000840000,-140.00000,
,,,-00.000000838000,-142.00000,
,,,-00.000000836000,-144.00000,
,,,-00.000000834000,-144.00000,
,,,-00.000000832000,-146.00000,
,,,-00.000000830000,-144.00000,
,,,-00.000000828000,-144.00000,
,,,-00.000000826000,-144.00000,
,,,-00.000000824000,-144.00000,
,,,-00.000000822000,-146.00000,
,,,-00.000000820000,-146.00000,
,,,-00.000000818000,-144.00000,
,,,-00.000000816000,-144.00000,
,,,-00.000000814000,-144.00000,
,,,-00.000000812000,-144.00000,
,,,-00.000000810000,-144.00000,
,,,-00.000000808000,-146.00000,
,,,-00.000000806000,-144.00000,
,,,-00.000000804000,-144.00000,
,,,-00.000000802000,-142.00000,
,,,-00.000000800000,-144.00000,
,,,-00.000000798000,-144.00000,
,,,-00.000000796000,-144.00000,
,,,-00.000000794000,-146.00000,
,,,-00.000000792000,-144.00000,
,,,-00.000000790000,-140.00000,
,,,-00.000000788000,-144.00000,
,,,-00.000000786000,-144.00000,
,,,-00.000000784000,-142.00000,
,,,-00.000000782000,-144.00000,
,,,-00.000000780000,-142.00000,
,,,-00.000000778000,-142.00000,
,,,-00.000000776000,-140.00000,
,,,-00.000000774000,-142.00000,
,,,-00.000000772000,-144.00000,
,,,-00.000000770000,-146.00000,
,,,-00.000000768000,-146.00000,
,,,-00.000000766000,-148.00000,
,,,-00.000000764000,-144.00000,
,,,-00.000000762000,-144.00000,
,,,-00.000000760000,-144.00000,
,,,-00.000000758000,-144.00000,
,,,-00.000000756000,-144.00000,
,,,-00.000000754000,-142.00000,
,,,-00.000000752000,-146.00000,
,,,-00.000000750000,-146.00000,
,,,-00.000000748000,-142.00000,
,,,-00.000000746000,-142.00000,
,,,-00.000000744000,-144.00000,
,,,-00.000000742000,-144.00000,
,,,-00.000000740000,-144.00000,
,,,-00.000000738000,-142.00000,
,,,-00.000000736000,-144.00000,
,,,-00.000000734000,-144.00000,
,,,-00.000000732000,-144.00000,
,,,-00.000000730000,-142.00000,
,,,-00.000000728000,-144.00000,
,,,-00.000000726000,-146.00000,
,,,-00.000000724000,-144.00000,
,,,-00.000000722000,-142.00000,
,,,-00.000000720000,-146.00000,
,,,-00.000000718000,-146.00000,
,,,-00.000000716000,-146.00000,
,,,-00.000000714000,-142.00000,
,,,-00.000000712000,-140.00000,
,,,-00.000000710000,-144.00000,
,,,-00.000000708000,-142.00000,
,,,-00.000000706000,-142.00000,
,,,-00.000000704000,-144.00000,
,,,-00.000000702000,-142.00000,
,,,-00.000000700000,-146.00000,
,,,-00.000000698000,-144.00000,
,,,-00.000000696000,-144.00000,
,,,-00.000000694000,-142.00000,
,,,-00.000000692000,-144.00000,
,,,-00.000000690000,-142.00000,
,,,-00.000000688000,-144.00000,
,,,-00.000000686000,-144.00000,
,,,-00.000000684000,-148.00000,
,,,-00.000000682000,-142.00000,
,,,-00.000000680000,-142.00000,
,,,-00.000000678000,-142.00000,
,,,-00.000000676000,-142.00000,
,,,-00.000000674000,-144.00000,
,,,-00.000000672000,-144.00000,
,,,-00.000000670000,-144.00000,
,,,-00.000000668000,-144.00000,
,,,-00.000000666000,-148.00000,
,,,-00.000000664000,-140.00000,
,,,-00.000000662000,-144.00000,
,,,-00.000000660000,-144.00000,
,,,-00.000000658000,-144.00000,
,,,-00.000000656000,-144.00000,
,,,-00.000000654000,-142.00000,
,,,-00.000000652000,-144.00000,
,,,-00.000000650000,-146.00000,
,,,-00.000000648000,-144.00000,
,,,-00.000000646000,-144.00000,
,,,-00.000000644000,-146.00000,
,,,-00.000000642000,-142.00000,
,,,-00.000000640000,-142.00000,
,,,-00.000000638000,-144.00000,
,,,-00.000000636000,-142.00000,
,,,-00.000000634000,-146.00000,
,,,-00.000000632000,-144.00000,
,,,-00.000000630000,-144.00000,
,,,-00.000000628000,-144.00000,
,,,-00.000000626000,-142.00000,
,,,-00.000000624000,-144.00000,
,,,-00.000000622000,-146.00000,
,,,-00.000000620000,-144.00000,
,,,-00.000000618000,-144.00000,
,,,-00.000000616000,-144.00000,
,,,-00.000000614000,-142.00000,
,,,-00.000000612000,-144.00000,
,,,-00.000000610000,-144.00000,
,,,-00.000000608000,-144.00000,
,,,-00.000000606000,-142.00000,
,,,-00.000000604000,-140.00000,
,,,-00.000000602000,-144.00000,
,,,-00.000000600000,-146.00000,
,,,-00.000000598000,-142.00000,
,,,-00.000000596000,-144.00000,
,,,-00.000000594000,-144.00000,
,,,-00.000000592000,-142.00000,
,,,-00.000000590000,-142.00000,
,,,-00.000000588000,-142.00000,
,,,-00.000000586000,-142.00000,
,,,-00.000000584000,-144.00000,
,,,-00.000000582000,-142.00000,
,,,-00.000000580000,-144.00000,
,,,-00.000000578000,-142.00000,
,,,-00.000000576000,-144.00000,
,,,-00.000000574000,-142.00000,
,,,-00.000000572000,-142.00000,
,,,-00.000000570000,-146.00000,
,,,-00.000000568000,-144.00000,
,,,-00.000000566000,-138.00000,
,,,-00.000000564000,-142.00000,
,,,-00.000000562000,-146.00000,
,,,-00.000000560000,-144.00000,
,,,-00.000000558000,-144.00000,
,,,-00.000000556000,-144.00000,
,,,-00.000000554000,-146.00000,
,,,-00.000000552000,-146.00000,
,,,-00.000000550000,-142.00000,
,,,-00.000000548000,-144.00000,
,,,-00.000000546000,-142.00000,
,,,-00.000000544000,-142.00000,
,,,-00.000000542000,-144.00000,
,,,-00.000000540000,-142.00000,
,,,-00.000000538000,-144.00000,
,,,-00.000000536000,-144.00000,
,,,-00.000000534000,-146.00000,
,,,-00.000000532000,-142.00000,
,,,-00.000000530000,-142.00000,
,,,-00.000000528000,-146.00000,
,,,-00.000000526000,-142.00000,
,,,-00.000000524000,-140.00000,
,,,-00.000000522000,-144.00000,
,,,-00.000000520000,-144.00000,
,,,-00.000000518000,-146.00000,
,,,-00.000000516000,-140.00000,
,,,-00.000000514000,-142.00000,
,,,-00.000000512000,-144.00000,
,,,-00.000000510000,-144.00000,
,,,-00.000000508000,-144.00000,
,,,-00.000000506000,-146.00000,
,,,-00.000000504000,-144.00000,
,,,-00.000000502000,-146.00000,
,,,-00.000000500000,-144.00000,
,,,-00.000000498000,-144.00000,
,,,-00.000000496000,-142.00000,
,,,-00.000000494000,-142.00000,
,,,-00.000000492000,-144.00000,
,,,-00.000000490000,-142.00000,
,,,-00.000000488000,-144.00000,
,,,-00.000000486000,-146.00000,
,,,-00.000000484000,-142.00000,
,,,-00.000000482000,-144.00000,
,,,-00.000000480000,-142.00000,
,,,-00.000000478000,-142.00000,
,,,-00.000000476000,-144.00000,
,,,-00.000000474000,-144.00000,
,,,-00.000000472000,-144.00000,
,,,-00.000000470000,-144.00000,
,,,-00.000000468000,-144.00000,
,,,-00.000000466000,-142.00000,
,,,-00.000000464000,-140.00000,
,,,-00.000000462000,-142.00000,
,,,-00.000000460000,-144.00000,
,,,-00.000000458000,-144.00000,
,,,-00.000000456000,-142.00000,
,,,-00.000000454000,-146.00000,
,,,-00.000000452000,-148.00000,
,,,-00.000000450000,-144.00000,
,,,-00.000000448000,-144.00000,
,,,-00.000000446000,-146.00000,
,,,-00.000000444000,-144.00000,
,,,-00.000000442000,-144.00000,
,,,-00.000000440000,-144.00000,
,,,-00.000000438000,-144.00000,
,,,-00.000000436000,-146.00000,
,,,-00.000000434000,-142.00000,
,,,-00.000000432000,-144.00000,
,,,-00.000000430000,-142.00000,
,,,-00.000000428000,-142.00000,
,,,-00.000000426000,-142.00000,
,,,-00.000000424000,-144.00000,
,,,-00.000000422000,-144.00000,
,,,-00.000000420000,-146.00000,
,,,-00.000000418000,-144.00000,
,,,-00.000000416000,-144.00000,
,,,-00.000000414000,-144.00000,
,,,-00.000000412000,-144.00000,
,,,-00.000000410000,-144.00000,
,,,-00.000000408000,-142.00000,
,,,-00.000000406000,-142.00000,
,,,-00.000000404000,-142.00000,
,,,-00.000000402000,-144.00000,
,,,-00.000000400000,-142.00000,
,,,-00.000000398000,-144.00000,
,,,-00.000000396000,-142.00000,
,,,-00.000000394000,-142.00000,
,,,-00.000000392000,-144.00000,
,,,-00.000000390000,-142.00000,
,,,-00.000000388000,-142.00000,
,,,-00.000000386000,-144.00000,
,,,-00.000000384000,-142.00000,
,,,-00.000000382000,-142.00000,
,,,-00.000000380000,-142.00000,
,,,-00.000000378000,-142.00000,
,,,-00.000000376000,-144.00000,
,,,-00.000000374000,-144.00000,
,,,-00.000000372000,-146.00000,
,,,-00.000000370000,-146.00000,
,,,-00.000000368000,-144.00000,
,,,-00.000000366000,-144.00000,
,,,-00.000000364000,-144.00000,
,,,-00.000000362000,-142.00000,
,,,-00.000000360000,-144.00000,
,,,-00.000000358000,-142.00000,
,,,-00.000000356000,-146.00000,
,,,-00.000000354000,-144.00000,
,,,-00.000000352000,-144.00000,
,,,-00.000000350000,-144.00000,
,,,-00.000000348000,-146.00000,
,,,-00.000000346000,-142.00000,
,,,-00.000000344000,-144.00000,
,,,-00.000000342000,-144.00000,
,,,-00.000000340000,-144.00000,
,,,-00.000000338000,-144.00000,
,,,-00.000000336000,-144.00000,
,,,-00.000000334000,-142.00000,
,,,-00.000000332000,-142.00000,
,,,-00.000000330000,-146.00000,
,,,-00.000000328000,-142.00000,
,,,-00.000000326000,-144.00000,
,,,-00.000000324000,-144.00000,
,,,-00.000000322000,-146.00000,
,,,-00.000000320000,-146.00000,
,,,-00.000000318000,-142.00000,
,,,-00.000000316000,-142.00000,
,,,-00.000000314000,-144.00000,
,,,-00.000000312000,-144.00000,
,,,-00.000000310000,-142.00000,
,,,-00.000000308000,-144.00000,
,,,-00.000000306000,-144.00000,
,,,-00.000000304000,-146.00000,
,,,-00.000000302000,-144.00000,
,,,-00.000000300000,-142.00000,
,,,-00.000000298000,-146.00000,
,,,-00.000000296000,-142.00000,
,,,-00.000000294000,-144.00000,
,,,-00.000000292000,-144.00000,
,,,-00.000000290000,-142.00000,
,,,-00.000000288000,-146.00000,
,,,-00.000000286000,-142.00000,
,,,-00.000000284000,-142.00000,
,,,-00.000000282000,-142.00000,
,,,-00.000000280000,-142.00000,
,,,-00.000000278000,-142.00000,
,,,-00.000000276000,-142.00000,
,,,-00.000000274000,-142.00000,
,,,-00.000000272000,-144.00000,
,,,-00.000000270000,-146.00000,
,,,-00.000000268000,-144.00000,
,,,-00.000000266000,-144.00000,
,,,-00.000000264000,-142.00000,
,,,-00.000000262000,-142.00000,
,,,-00.000000260000,-142.00000,
,,,-00.000000258000,-142.00000,
,,,-00.000000256000,-142.00000,
,,,-00.000000254000,-146.00000,
,,,-00.000000252000,-142.00000,
,,,-00.000000250000,-144.00000,
,,,-00.000000248000,-144.00000,
,,,-00.000000246000,-142.00000,
,,,-00.000000244000,-144.00000,
,,,-00.000000242000,-142.00000,
,,,-00.000000240000,-142.00000,
,,,-00.000000238000,-144.00000,
,,,-00.000000236000,-142.00000,
,,,-00.000000234000,-142.00000,
,,,-00.000000232000,-144.00000,
,,,-00.000000230000,-142.00000,
,,,-00.000000228000,-142.00000,
,,,-00.000000226000,-146.00000,
,,,-00.000000224000,-144.00000,
,,,-00.000000222000,-144.00000,
,,,-00.000000220000,-140.00000,
,,,-00.000000218000,-142.00000,
,,,-00.000000216000,-142.00000,
,,,-00.000000214000,-142.00000,
,,,-00.000000212000,-144.00000,
,,,-00.000000210000,-144.00000,
,,,-00.000000208000,-144.00000,
,,,-00.000000206000,-146.00000,
,,,-00.000000204000,-144.00000,
,,,-00.000000202000,-142.00000,
,,,-00.000000200000,-144.00000,
,,,-00.000000198000,-144.00000,
,,,-00.000000196000,-142.00000,
,,,-00.000000194000,-144.00000,
,,,-00.000000192000,-144.00000,
,,,-00.000000190000,-144.00000,
,,,-00.000000188000,-146.00000,
,,,-00.000000186000,-142.00000,
,,,-00.000000184000,-142.00000,
,,,-00.000000182000,-142.00000,
,,,-00.000000180000,-144.00000,
,,,-00.000000178000,-142.00000,
,,,-00.000000176000,-144.00000,
,,,-00.000000174000,-146.00000,
,,,-00.000000172000,-146.00000,
,,,-00.000000170000,-142.00000,
,,,-00.000000168000,-142.00000,
,,,-00.000000166000,-142.00000,
,,,-00.000000164000,-142.00000,
,,,-00.000000162000,-144.00000,
,,,-00.000000160000,-144.00000,
,,,-00.000000158000,-144.00000,
,,,-00.000000156000,-146.00000,
,,,-00.000000154000,-142.00000,
,,,-00.000000152000,-142.00000,
,,,-00.000000150000,-144.00000,
,,,-00.000000148000,-142.00000,
,,,-00.000000146000,-144.00000,
,,,-00.000000144000,-144.00000,
,,,-00.000000142000,-146.00000,
,,,-00.000000140000,-144.00000,
,,,-00.000000138000,-144.00000,
,,,-00.000000136000,-142.00000,
,,,-00.000000134000,-142.00000,
,,,-00.000000132000,-146.00000,
,,,-00.000000130000,-144.00000,
,,,-00.000000128000,-144.00000,
,,,-00.000000126000,-144.00000,
,,,-00.000000124000,-146.00000,
,,,-00.000000122000,-144.00000,
,,,-00.000000120000,-140.00000,
,,,-00.000000118000,-140.00000,
,,,-00.000000116000,-146.00000,
,,,-00.000000114000,-144.00000,
,,,-00.000000112000,-144.00000,
,,,-00.000000110000,-144.00000,
,,,-00.000000108000,-142.00000,
,,,-00.000000106000,-144.00000,
,,,-00.000000104000,-140.00000,
,,,-00.000000102000,-144.00000,
,,,-00.000000100000,-140.00000,
,,,-00.000000098000,-144.00000,
,,,-00.000000096000,-142.00000,
,,,-00.000000094000,-144.00000,
,,,-00.000000092000,-142.00000,
,,,-00.000000090000,-142.00000,
,,,-00.000000088000,-140.00000,
,,,-00.000000086000,-142.00000,
,,,-00.000000084000,-142.00000,
,,,-00.000000082000,-142.00000,
,,,-00.000000080000,-142.00000,
,,,-00.000000078000,-142.00000,
,,,-00.000000076000,-144.00000,
,,,-00.000000074000,-144.00000,
,,,-00.000000072000,-144.00000,
,,,-00.000000070000,-142.00000,
,,,-00.000000068000,-144.00000,
,,,-00.000000066000,-142.00000,
,,,-00.000000064000,-142.00000,
,,,-00.000000062000,-144.00000,
,,,-00.000000060000,-142.00000,
,,,-00.000000058000,-144.00000,
,,,-00.000000056000,-144.00000,
,,,-00.000000054000,-144.00000,
,,,-00.000000052000,-144.00000,
,,,-00.000000050000,-144.00000,
,,,-00.000000048000,-140.00000,
,,,-00.000000046000,-142.00000,
,,,-00.000000044000,-144.00000,
,,,-00.000000042000,-142.00000,
,,,-00.000000040000,-144.00000,
,,,-00.000000038000,-142.00000,
,,,-00.000000036000,-142.00000,
,,,-00.000000034000,-144.00000,
,,,-00.000000032000,-142.00000,
,,,-00.000000030000,-142.00000,
,,,-00.000000028000,-144.00000,
,,,-00.000000026000,-140.00000,
,,,-00.000000024000,-142.00000,
,,,-00.000000022000,-140.00000,
,,,-00.000000020000,-136.00000,
,,,-00.000000018000,-136.00000,
,,,-00.000000016000,-132.00000,
,,,-00.000000014000,-130.00000,
,,,-00.000000012000,-120.00000,
,,,-00.000000010000,-114.00000,
,,,-00.000000008000,-110.00000,
,,,-00.000000006000,-100.00000,
,,,-00.000000004000, -92.00000,
,,,-00.000000002000, -82.00000,
,,,-00.000000000000, -68.00000,
,,,00.000000002000, -58.00000,
,,,00.000000004000, -46.00000,
,,,00.000000006000, -32.00000,
,,,00.000000008000, -20.00000,
,,,00.000000010000,  -4.00000,
,,,00.000000012000,   8.00000,
,,,00.000000014000,  18.00000,
,,,00.000000016000,  30.00000,
,,,00.000000018000,  42.00000,
,,,00.000000020000,  50.00000,
,,,00.000000022000,  60.00000,
,,,00.000000024000,  68.00000,
,,,00.000000026000,  76.00000,
,,,00.000000028000,  82.00000,
,,,00.000000030000,  88.00000,
,,,00.000000032000,  92.00000,
,,,00.000000034000, 100.00000,
,,,00.000000036000, 104.00000,
,,,00.000000038000, 110.00000,
,,,00.000000040000, 114.00000,
,,,00.000000042000, 118.00000,
,,,00.000000044000, 120.00000,
,,,00.000000046000, 124.00000,
,,,00.000000048000, 128.00000,
,,,00.000000050000, 130.00000,
,,,00.000000052000, 136.00000,
,,,00.000000054000, 138.00000,
,,,00.000000056000, 140.00000,
,,,00.000000058000, 140.00000,
,,,00.000000060000, 144.00000,
,,,00.000000062000, 144.00000,
,,,00.000000064000, 144.00000,
,,,00.000000066000, 146.00000,
,,,00.000000068000, 146.00000,
,,,00.000000070000, 146.00000,
,,,00.000000072000, 148.00000,
,,,00.000000074000, 150.00000,
,,,00.000000076000, 150.00000,
,,,00.000000078000, 150.00000,
,,,00.000000080000, 148.00000,
,,,00.000000082000, 148.00000,
,,,00.000000084000, 146.00000,
,,,00.000000086000, 140.00000,
,,,00.000000088000, 138.00000,
,,,00.000000090000, 134.00000,
,,,00.000000092000, 130.00000,
,,,00.000000094000, 124.00000,
,,,00.000000096000, 116.00000,
,,,00.000000098000, 108.00000,
,,,00.000000100000,  98.00000,
,,,00.000000102000,  90.00000,
,,,00.000000104000,  80.00000,
,,,00.000000106000,  70.00000,
,,,00.000000108000,  62.00000,
,,,00.000000110000,  50.00000,
,,,00.000000112000,  36.00000,
,,,00.000000114000,  26.00000,
,,,00.000000116000,  14.00000,
,,,00.000000118000,   8.00000,
,,,00.000000120000,  -4.00000,
,,,00.000000122000, -14.00000,
,,,00.000000124000, -22.00000,
,,,00.000000126000, -30.00000,
,,,00.000000128000, -38.00000,
,,,00.000000130000, -42.00000,
,,,00.000000132000, -46.00000,
,,,00.000000134000, -54.00000,
,,,00.000000136000, -58.00000,
,,,00.000000138000, -64.00000,
,,,00.000000140000, -66.00000,
,,,00.000000142000, -72.00000,
,,,00.000000144000, -74.00000,
,,,00.000000146000, -80.00000,
,,,00.000000148000, -82.00000,
,,,00.000000150000, -82.00000,
,,,00.000000152000, -86.00000,
,,,00.000000154000, -88.00000,
,,,00.000000156000, -90.00000,
,,,00.000000158000, -92.00000,
,,,00.000000160000, -92.00000,
,,,00.000000162000, -92.00000,
,,,00.000000164000, -92.00000,
,,,00.000000166000, -92.00000,
,,,00.000000168000, -96.00000,
,,,00.000000170000, -96.00000,
,,,00.000000172000, -94.00000,
,,,00.000000174000, -96.00000,
,,,00.000000176000, -92.00000,
,,,00.000000178000, -96.00000,
,,,00.000000180000, -94.00000,
,,,00.000000182000, -94.00000,
,,,00.000000184000, -94.00000,
,,,00.000000186000, -92.00000,
,,,00.000000188000, -92.00000,
,,,00.000000190000, -92.00000,
,,,00.000000192000, -92.00000,
,,,00.000000194000, -92.00000,
,,,00.000000196000, -90.00000,
,,,00.000000198000, -90.00000,
,,,00.000000200000, -88.00000,
,,,00.000000202000, -90.00000,
,,,00.000000204000, -90.00000,
,,,00.000000206000, -92.00000,
,,,00.000000208000, -88.00000,
,,,00.000000210000, -88.00000,
,,,00.000000212000, -86.00000,
,,,00.000000214000, -84.00000,
,,,00.000000216000, -84.00000,
,,,00.000000218000, -86.00000,
,,,00.000000220000, -84.00000,
,,,00.000000222000, -84.00000,
,,,00.000000224000, -84.00000,
,,,00.000000226000, -80.00000,
,,,00.000000228000, -80.00000,
,,,00.000000230000, -82.00000,
,,,00.000000232000, -76.00000,
,,,00.000000234000, -78.00000,
