V52-Signale-auf-Leitungen/Oszilloskop/ALL0053/F0053CH1.CSV

Record Length,2.500000e+03,,  -0.000000068000,-620.00000,
Sample Interval,4.000000e-10,,  -0.000000067600,-620.00000,
Trigger Point,1.700000000000e+02,,  -0.000000067200,-600.00000,
,,,  -0.000000066800,-620.00000,
,,,  -0.000000066400,-640.00000,
,,,  -0.000000066000,-660.00000,
Source,CH1,,  -0.000000065600,-660.00000,
Vertical Units,V,,  -0.000000065200,-640.00000,
Vertical Scale,5.000000e+02,,  -0.000000064800,-640.00000,
Vertical Offset,1.400000e+02,,  -0.000000064400,-640.00000,
Horizontal Units,s,,  -0.000000064000,-620.00000,
Horizontal Scale,1.000000e-07,,  -0.000000063600,-620.00000,
Pt Fmt,Y,,  -0.000000063200,-620.00000,
Yzero,0.000000e+00,,  -0.000000062800,-620.00000,
Probe Atten,1.000000e+03,,  -0.000000062400,-620.00000,
Model Number,TDS1001B,,  -0.000000062000,-640.00000,
Serial Number,C051164,,  -0.000000061600,-640.00000,
Firmware Version,FV:v22.01,,  -0.000000061200,-640.00000,
,,,-00.000000060800,-640.00000,
,,,-00.000000060400,-640.00000,
,,,-00.000000060000,-620.00000,
,,,-00.000000059600,-620.00000,
,,,-00.000000059200,-620.00000,
,,,-00.000000058800,-620.00000,
,,,-00.000000058400,-620.00000,
,,,-00.000000058000,-620.00000,
,,,-00.000000057600,-620.00000,
,,,-00.000000057200,-600.00000,
,,,-00.000000056800,-620.00000,
,,,-00.000000056400,-620.00000,
,,,-00.000000056000,-620.00000,
,,,-00.000000055600,-640.00000,
,,,-00.000000055200,-620.00000,
,,,-00.000000054800,-620.00000,
,,,-00.000000054400,-620.00000,
,,,-00.000000054000,-620.00000,
,,,-00.000000053600,-620.00000,
,,,-00.000000053200,-620.00000,
,,,-00.000000052800,-640.00000,
,,,-00.000000052400,-620.00000,
,,,-00.000000052000,-620.00000,
,,,-00.000000051600,-620.00000,
,,,-00.000000051200,-600.00000,
,,,-00.000000050800,-600.00000,
,,,-00.000000050400,-600.00000,
,,,-00.000000050000,-600.00000,
,,,-00.000000049600,-600.00000,
,,,-00.000000049200,-600.00000,
,,,-00.000000048800,-620.00000,
,,,-00.000000048400,-620.00000,
,,,-00.000000048000,-620.00000,
,,,-00.000000047600,-620.00000,
,,,-00.000000047200,-600.00000,
,,,-00.000000046800,-620.00000,
,,,-00.000000046400,-620.00000,
,,,-00.000000046000,-620.00000,
,,,-00.000000045600,-620.00000,
,,,-00.000000045200,-600.00000,
,,,-00.000000044800,-620.00000,
,,,-00.000000044400,-620.00000,
,,,-00.000000044000,-620.00000,
,,,-00.000000043600,-620.00000,
,,,-00.000000043200,-620.00000,
,,,-00.000000042800,-620.00000,
,,,-00.000000042400,-620.00000,
,,,-00.000000042000,-620.00000,
,,,-00.000000041600,-620.00000,
,,,-00.000000041200,-620.00000,
,,,-00.000000040800,-620.00000,
,,,-00.000000040400,-620.00000,
,,,-00.000000040000,-600.00000,
,,,-00.000000039600,-600.00000,
,,,-00.000000039200,-600.00000,
,,,-00.000000038800,-600.00000,
,,,-00.000000038400,-600.00000,
,,,-00.000000038000,-620.00000,
,,,-00.000000037600,-620.00000,
,,,-00.000000037200,-620.00000,
,,,-00.000000036800,-620.00000,
,,,-00.000000036400,-620.00000,
,,,-00.000000036000,-620.00000,
,,,-00.000000035600,-620.00000,
,,,-00.000000035200,-620.00000,
,,,-00.000000034800,-640.00000,
,,,-00.000000034400,-620.00000,
,,,-00.000000034000,-620.00000,
,,,-00.000000033600,-620.00000,
,,,-00.000000033200,-600.00000,
,,,-00.000000032800,-600.00000,
,,,-00.000000032400,-600.00000,
,,,-00.000000032000,-600.00000,
,,,-00.000000031600,-600.00000,
,,,-00.000000031200,-600.00000,
,,,-00.000000030800,-600.00000,
,,,-00.000000030400,-600.00000,
,,,-00.000000030000,-600.00000,
,,,-00.000000029600,-600.00000,
,,,-00.000000029200,-600.00000,
,,,-00.000000028800,-600.00000,
,,,-00.000000028400,-600.00000,
,,,-00.000000028000,-600.00000,
,,,-00.000000027600,-600.00000,
,,,-00.000000027200,-600.00000,
,,,-00.000000026800,-600.00000,
,,,-00.000000026400,-600.00000,
,,,-00.000000026000,-600.00000,
,,,-00.000000025600,-600.00000,
,,,-00.000000025200,-600.00000,
,,,-00.000000024800,-600.00000,
,,,-00.000000024400,-600.00000,
,,,-00.000000024000,-580.00000,
,,,-00.000000023600,-580.00000,
,,,-00.000000023200,-580.00000,
,,,-00.000000022800,-580.00000,
,,,-00.000000022400,-580.00000,
,,,-00.000000022000,-580.00000,
,,,-00.000000021600,-580.00000,
,,,-00.000000021200,-560.00000,
,,,-00.000000020800,-560.00000,
,,,-00.000000020400,-560.00000,
,,,-00.000000020000,-560.00000,
,,,-00.000000019600,-560.00000,
,,,-00.000000019200,-560.00000,
,,,-00.000000018800,-560.00000,
,,,-00.000000018400,-560.00000,
,,,-00.000000018000,-540.00000,
,,,-00.000000017600,-540.00000,
,,,-00.000000017200,-540.00000,
,,,-00.000000016800,-540.00000,
,,,-00.000000016400,-520.00000,
,,,-00.000000016000,-500.00000,
,,,-00.000000015600,-500.00000,
,,,-00.000000015200,-480.00000,
,,,-00.000000014800,-480.00000,
,,,-00.000000014400,-480.00000,
,,,-00.000000014000,-480.00000,
,,,-00.000000013600,-460.00000,
,,,-00.000000013200,-440.00000,
,,,-00.000000012800,-440.00000,
,,,-00.000000012400,-440.00000,
,,,-00.000000012000,-440.00000,
,,,-00.000000011600,-440.00000,
,,,-00.000000011200,-420.00000,
,,,-00.000000010800,-420.00000,
,,,-00.000000010400,-420.00000,
,,,-00.000000010000,-420.00000,
,,,-00.000000009600,-400.00000,
,,,-00.000000009200,-380.00000,
,,,-00.000000008800,-380.00000,
,,,-00.000000008400,-380.00000,
,,,-00.000000008000,-360.00000,
,,,-00.000000007600,-360.00000,
,,,-00.000000007200,-340.00000,
,,,-00.000000006800,-340.00000,
,,,-00.000000006400,-340.00000,
,,,-00.000000006000,-320.00000,
,,,-00.000000005600,-320.00000,
,,,-00.000000005200,-300.00000,
,,,-00.000000004800,-300.00000,
,,,-00.000000004400,-300.00000,
,,,-00.000000004000,-300.00000,
,,,-00.000000003600,-300.00000,
,,,-00.000000003200,-280.00000,
,,,-00.000000002800,-280.00000,
,,,-00.000000002400,-260.00000,
,,,-00.000000002000,-240.00000,
,,,-00.000000001600,-240.00000,
,,,-00.000000001200,-240.00000,
,,,-00.000000000800,-240.00000,
,,,-00.000000000400,-240.00000,
,,,-00.000000000000,-240.00000,
,,,00.000000000400,-240.00000,
,,,00.000000000800,-220.00000,
,,,00.000000001200,-220.00000,
,,,00.000000001600,-220.00000,
,,,00.000000002000,-200.00000,
,,,00.000000002400,-200.00000,
,,,00.000000002800,-180.00000,
,,,00.000000003200,-180.00000,
,,,00.000000003600,-180.00000,
,,,00.000000004000,-160.00000,
,,,00.000000004400,-140.00000,
,,,00.000000004800,-120.00000,
,,,00.000000005200,-120.00000,
,,,00.000000005600,-100.00000,
,,,00.000000006000,-100.00000,
,,,00.000000006400,-100.00000,
,,,00.000000006800,-100.00000,
,,,00.000000007200,-100.00000,
,,,00.000000007600,-100.00000,
,,,00.000000008000,-100.00000,
,,,00.000000008400,-100.00000,
,,,00.000000008800,-100.00000,
,,,00.000000009200,-100.00000,
,,,00.000000009600,-100.00000,
,,,00.000000010000, -80.00000,
,,,00.000000010400, -80.00000,
,,,00.000000010800, -60.00000,
,,,00.000000011200, -60.00000,
,,,00.000000011600, -60.00000,
,,,00.000000012000, -40.00000,
,,,00.000000012400, -20.00000,
,,,00.000000012800,   0.00000,
,,,00.000000013200,   0.00000,
,,,00.000000013600,   0.00000,
,,,00.000000014000,   0.00000,
,,,00.000000014400,   0.00000,
,,,00.000000014800,   0.00000,
,,,00.000000015200,   0.00000,
,,,00.000000015600,   0.00000,
,,,00.000000016000,  20.00000,
,,,00.000000016400,  20.00000,
,,,00.000000016800,  20.00000,
,,,00.000000017200,  20.00000,
,,,00.000000017600,  20.00000,
,,,00.000000018000,  20.00000,
,,,00.000000018400,  20.00000,
,,,00.000000018800,  40.00000,
,,,00.000000019200,  40.00000,
,,,00.000000019600,  40.00000,
,,,00.000000020000,  60.00000,
,,,00.000000020400,  60.00000,
,,,00.000000020800,  80.00000,
,,,00.000000021200,  60.00000,
,,,00.000000021600,  60.00000,
,,,00.000000022000,  40.00000,
,,,00.000000022400,  40.00000,
,,,00.000000022800,  40.00000,
,,,00.000000023200,  40.00000,
,,,00.000000023600,  60.00000,
,,,00.000000024000,  80.00000,
,,,00.000000024400,  80.00000,
,,,00.000000024800,  80.00000,
,,,00.000000025200,  80.00000,
,,,00.000000025600,  80.00000,
,,,00.000000026000,  80.00000,
,,,00.000000026400,  80.00000,
,,,00.000000026800,  80.00000,
,,,00.000000027200,  80.00000,
,,,00.000000027600,  80.00000,
,,,00.000000028000,  80.00000,
,,,00.000000028400,  80.00000,
,,,00.000000028800,  80.00000,
,,,00.000000029200,  80.00000,
,,,00.000000029600,  80.00000,
,,,00.000000030000, 100.00000,
,,,00.000000030400, 100.00000,
,,,00.000000030800, 120.00000,
,,,00.000000031200, 100.00000,
,,,00.000000031600, 100.00000,
,,,00.000000032000,  80.00000,
,,,00.000000032400,  80.00000,
,,,00.000000032800,  80.00000,
,,,00.000000033200,  60.00000,
,,,00.000000033600,  80.00000,
,,,00.000000034000,  80.00000,
,,,00.000000034400,  80.00000,
,,,00.000000034800, 100.00000,
,,,00.000000035200,  80.00000,
,,,00.000000035600,  80.00000,
,,,00.000000036000,  80.00000,
,,,00.000000036400,  80.00000,
,,,00.000000036800, 100.00000,
,,,00.000000037200,  80.00000,
,,,00.000000037600,  80.00000,
,,,00.000000038000,  80.00000,
,,,00.000000038400,  80.00000,
,,,00.000000038800,  80.00000,
,,,00.000000039200,  80.00000,
,,,00.000000039600,  80.00000,
,,,00.000000040000,  80.00000,
,,,00.000000040400,  80.00000,
,,,00.000000040800, 100.00000,
,,,00.000000041200,  80.00000,
,,,00.000000041600,  80.00000,
,,,00.000000042000,  80.00000,
,,,00.000000042400,  80.00000,
,,,00.000000042800,  80.00000,
,,,00.000000043200,  80.00000,
,,,00.000000043600,  80.00000,
,,,00.000000044000,  80.00000,
,,,00.000000044400,  80.00000,
,,,00.000000044800,  80.00000,
,,,00.000000045200,  80.00000,
,,,00.000000045600,  80.00000,
,,,00.000000046000,  80.00000,
,,,00.000000046400,  80.00000,
,,,00.000000046800, 100.00000,
,,,00.000000047200, 100.00000,
,,,00.000000047600, 100.00000,
,,,00.000000048000,  80.00000,
,,,00.000000048400,  80.00000,
,,,00.000000048800,  80.00000,
,,,00.000000049200,  80.00000,
,,,00.000000049600,  80.00000,
,,,00.000000050000,  80.00000,
,,,00.000000050400,  80.00000,
,,,00.000000050800,  80.00000,
,,,00.000000051200,  80.00000,
,,,00.000000051600,  80.00000,
,,,00.000000052000,  60.00000,
,,,00.000000052400,  60.00000,
,,,00.000000052800,  60.00000,
,,,00.000000053200,  40.00000,
,,,00.000000053600,  60.00000,
,,,00.000000054000,  60.00000,
,,,00.000000054400,  60.00000,
,,,00.000000054800,  80.00000,
,,,00.000000055200,  60.00000,
,,,00.000000055600,  60.00000,
,,,00.000000056000,  60.00000,
,,,00.000000056400,  40.00000,
,,,00.000000056800,  60.00000,
,,,00.000000057200,  60.00000,
,,,00.000000057600,  60.00000,
,,,00.000000058000,  80.00000,
,,,00.000000058400,  80.00000,
,,,00.000000058800,  80.00000,
,,,00.000000059200,  60.00000,
,,,00.000000059600,  60.00000,
,,,00.000000060000,  60.00000,
,,,00.000000060400,  60.00000,
,,,00.000000060800,  80.00000,
,,,00.000000061200,  60.00000,
,,,00.000000061600,  60.00000,
,,,00.000000062000,  60.00000,
,,,00.000000062400,  40.00000,
,,,00.000000062800,  60.00000,
,,,00.000000063200,  60.00000,
,,,00.000000063600,  60.00000,
,,,00.000000064000,  80.00000,
,,,00.000000064400,  80.00000,
,,,00.000000064800, 100.00000,
,,,00.000000065200,  80.00000,
,,,00.000000065600,  80.00000,
,,,00.000000066000,  80.00000,
,,,00.000000066400,  60.00000,
,,,00.000000066800,  80.00000,
,,,00.000000067200,  80.00000,
,,,00.000000067600,  80.00000,
,,,00.000000068000, 100.00000,
,,,00.000000068400,  80.00000,
,,,00.000000068800,  80.00000,
,,,00.000000069200,  60.00000,
,,,00.000000069600,  60.00000,
,,,00.000000070000,  60.00000,
,,,00.000000070400,  60.00000,
,,,00.000000070800,  80.00000,
,,,00.000000071200,  80.00000,
,,,00.000000071600,  80.00000,
,,,00.000000072000, 100.00000,
,,,00.000000072400, 100.00000,
,,,00.000000072800, 100.00000,
,,,00.000000073200, 100.00000,
,,,00.000000073600, 100.00000,
,,,00.000000074000, 100.00000,
,,,00.000000074400, 100.00000,
,,,00.000000074800, 100.00000,
,,,00.000000075200, 100.00000,
,,,00.000000075600, 100.00000,
,,,00.000000076000, 100.00000,
,,,00.000000076400, 100.00000,
,,,00.000000076800, 100.00000,
,,,00.000000077200, 100.00000,
,,,00.000000077600, 100.00000,
,,,00.000000078000, 120.00000,
,,,00.000000078400, 120.00000,
,,,00.000000078800, 140.00000,
,,,00.000000079200, 120.00000,
,,,00.000000079600, 120.00000,
,,,00.000000080000, 100.00000,
,,,00.000000080400, 100.00000,
,,,00.000000080800, 120.00000,
,,,00.000000081200, 120.00000,
,,,00.000000081600, 140.00000,
,,,00.000000082000, 160.00000,
,,,00.000000082400, 160.00000,
,,,00.000000082800, 160.00000,
,,,00.000000083200, 160.00000,
,,,00.000000083600, 160.00000,
,,,00.000000084000, 160.00000,
,,,00.000000084400, 160.00000,
,,,00.000000084800, 180.00000,
,,,00.000000085200, 180.00000,
,,,00.000000085600, 180.00000,
,,,00.000000086000, 200.00000,
,,,00.000000086400, 200.00000,
,,,00.000000086800, 220.00000,
,,,00.000000087200, 220.00000,
,,,00.000000087600, 220.00000,
,,,00.000000088000, 220.00000,
,,,00.000000088400, 220.00000,
,,,00.000000088800, 220.00000,
,,,00.000000089200, 220.00000,
,,,00.000000089600, 220.00000,
,,,00.000000090000, 240.00000,
,,,00.000000090400, 240.00000,
,,,00.000000090800, 260.00000,
,,,00.000000091200, 260.00000,
,,,00.000000091600, 260.00000,
,,,00.000000092000, 280.00000,
,,,00.000000092400, 280.00000,
,,,00.000000092800, 300.00000,
,,,00.000000093200, 300.00000,
,,,00.000000093600, 300.00000,
,,,00.000000094000, 300.00000,
,,,00.000000094400, 300.00000,
,,,00.000000094800, 300.00000,
,,,00.000000095200, 280.00000,
,,,00.000000095600, 300.00000,
,,,00.000000096000, 300.00000,
,,,00.000000096400, 320.00000,
,,,00.000000096800, 340.00000,
,,,00.000000097200, 340.00000,
,,,00.000000097600, 360.00000,
,,,00.000000098000, 360.00000,
,,,00.000000098400, 360.00000,
,,,00.000000098800, 360.00000,
,,,00.000000099200, 360.00000,
,,,00.000000099600, 360.00000,
,,,00.000000100000, 380.00000,
,,,00.000000100400, 380.00000,
,,,00.000000100800, 400.00000,
,,,00.000000101200, 400.00000,
,,,00.000000101600, 400.00000,
,,,00.000000102000, 400.00000,
,,,00.000000102400, 420.00000,
,,,00.000000102800, 440.00000,
,,,00.000000103200, 420.00000,
,,,00.000000103600, 420.00000,
,,,00.000000104000, 420.00000,
,,,00.000000104400, 440.00000,
,,,00.000000104800, 460.00000,
,,,00.000000105200, 480.00000,
,,,00.000000105600, 480.00000,
,,,00.000000106000, 500.00000,
,,,00.000000106400, 500.00000,
,,,00.000000106800, 500.00000,
,,,00.000000107200, 480.00000,
,,,00.000000107600, 480.00000,
,,,00.000000108000, 480.00000,
,,,00.000000108400, 480.00000,
,,,00.000000108800, 500.00000,
,,,00.000000109200, 500.00000,
,,,00.000000109600, 520.00000,
,,,00.000000110000, 540.00000,
,,,00.000000110400, 540.00000,
,,,00.000000110800, 560.00000,
,,,00.000000111200, 560.00000,
,,,00.000000111600, 560.00000,
,,,00.000000112000, 560.00000,
,,,00.000000112400, 560.00000,
,,,00.000000112800, 560.00000,
,,,00.000000113200, 540.00000,
,,,00.000000113600, 560.00000,
,,,00.000000114000, 560.00000,
,,,00.000000114400, 580.00000,
,,,00.000000114800, 600.00000,
,,,00.000000115200, 600.00000,
,,,00.000000115600, 600.00000,
,,,00.000000116000, 600.00000,
,,,00.000000116400, 600.00000,
,,,00.000000116800, 600.00000,
,,,00.000000117200, 600.00000,
,,,00.000000117600, 600.00000,
,,,00.000000118000, 620.00000,
,,,00.000000118400, 620.00000,
,,,00.000000118800, 620.00000,
,,,00.000000119200, 620.00000,
,,,00.000000119600, 620.00000,
,,,00.000000120000, 640.00000,
,,,00.000000120400, 640.00000,
,,,00.000000120800, 660.00000,
,,,00.000000121200, 640.00000,
,,,00.000000121600, 640.00000,
,,,00.000000122000, 640.00000,
,,,00.000000122400, 640.00000,
,,,00.000000122800, 660.00000,
,,,00.000000123200, 640.00000,
,,,00.000000123600, 640.00000,
,,,00.000000124000, 640.00000,
,,,00.000000124400, 640.00000,
,,,00.000000124800, 660.00000,
,,,00.000000125200, 660.00000,
,,,00.000000125600, 660.00000,
,,,00.000000126000, 660.00000,
,,,00.000000126400, 660.00000,
,,,00.000000126800, 660.00000,
,,,00.000000127200, 660.00000,
,,,00.000000127600, 660.00000,
,,,00.000000128000, 660.00000,
,,,00.000000128400, 660.00000,
,,,00.000000128800, 660.00000,
,,,00.000000129200, 660.00000,
,,,00.000000129600, 680.00000,
,,,00.000000130000, 700.00000,
,,,00.000000130400, 720.00000,
,,,00.000000130800, 720.00000,
,,,00.000000131200, 700.00000,
,,,00.000000131600, 680.00000,
,,,00.000000132000, 660.00000,
,,,00.000000132400, 660.00000,
,,,00.000000132800, 680.00000,
,,,00.000000133200, 680.00000,
,,,00.000000133600, 680.00000,
,,,00.000000134000, 700.00000,
,,,00.000000134400, 680.00000,
,,,00.000000134800, 680.00000,
,,,00.000000135200, 660.00000,
,,,00.000000135600, 660.00000,
,,,00.000000136000, 660.00000,
,,,00.000000136400, 660.00000,
,,,00.000000136800, 680.00000,
,,,00.000000137200, 680.00000,
,,,00.000000137600, 700.00000,
,,,00.000000138000, 700.00000,
,,,00.000000138400, 680.00000,
,,,00.000000138800, 680.00000,
,,,00.000000139200, 660.00000,
,,,00.000000139600, 660.00000,
,,,00.000000140000, 660.00000,
,,,00.000000140400, 640.00000,
,,,00.000000140800, 660.00000,
,,,00.000000141200, 660.00000,
,,,00.000000141600, 660.00000,
,,,00.000000142000, 680.00000,
,,,00.000000142400, 680.00000,
,,,00.000000142800, 680.00000,
,,,00.000000143200, 680.00000,
,,,00.000000143600, 680.00000,
,,,00.000000144000, 660.00000,
,,,00.000000144400, 660.00000,
,,,00.000000144800, 660.00000,
,,,00.000000145200, 660.00000,
,,,00.000000145600, 660.00000,
,,,00.000000146000, 660.00000,
,,,00.000000146400, 660.00000,
,,,00.000000146800, 660.00000,
,,,00.000000147200, 660.00000,
,,,00.000000147600, 660.00000,
,,,00.000000148000, 640.00000,
,,,00.000000148400, 640.00000,
,,,00.000000148800, 640.00000,
,,,00.000000149200, 620.00000,
,,,00.000000149600, 640.00000,
,,,00.000000150000, 640.00000,
,,,00.000000150400, 640.00000,
,,,00.000000150800, 660.00000,
,,,00.000000151200, 640.00000,
,,,00.000000151600, 640.00000,
,,,00.000000152000, 640.00000,
,,,00.000000152400, 640.00000,
,,,00.000000152800, 660.00000,
,,,00.000000153200, 660.00000,
,,,00.000000153600, 660.00000,
,,,00.000000154000, 660.00000,
,,,00.000000154400, 660.00000,
,,,00.000000154800, 660.00000,
,,,00.000000155200, 660.00000,
,,,00.000000155600, 660.00000,
,,,00.000000156000, 660.00000,
,,,00.000000156400, 660.00000,
,,,00.000000156800, 660.00000,
,,,00.000000157200, 660.00000,
,,,00.000000157600, 660.00000,
,,,00.000000158000, 680.00000,
,,,00.000000158400, 680.00000,
,,,00.000000158800, 680.00000,
,,,00.000000159200, 660.00000,
,,,00.000000159600, 640.00000,
,,,00.000000160000, 640.00000,
,,,00.000000160400, 640.00000,
,,,00.000000160800, 660.00000,
,,,00.000000161200, 660.00000,
,,,00.000000161600, 660.00000,
,,,00.000000162000, 640.00000,
,,,00.000000162400, 640.00000,
,,,00.000000162800, 640.00000,
,,,00.000000163200, 620.00000,
,,,00.000000163600, 640.00000,
,,,00.000000164000, 640.00000,
,,,00.000000164400, 640.00000,
,,,00.000000164800, 660.00000,
,,,00.000000165200, 640.00000,
,,,00.000000165600, 640.00000,
,,,00.000000166000, 640.00000,
,,,00.000000166400, 640.00000,
,,,00.000000166800, 660.00000,
,,,00.000000167200, 660.00000,
,,,00.000000167600, 660.00000,
,,,00.000000168000, 640.00000,
,,,00.000000168400, 640.00000,
,,,00.000000168800, 640.00000,
,,,00.000000169200, 640.00000,
,,,00.000000169600, 640.00000,
,,,00.000000170000, 640.00000,
,,,00.000000170400, 640.00000,
,,,00.000000170800, 640.00000,
,,,00.000000171200, 620.00000,
,,,00.000000171600, 640.00000,
,,,00.000000172000, 640.00000,
,,,00.000000172400, 640.00000,
,,,00.000000172800, 660.00000,
,,,00.000000173200, 640.00000,
,,,00.000000173600, 620.00000,
,,,00.000000174000, 620.00000,
,,,00.000000174400, 620.00000,
,,,00.000000174800, 640.00000,
,,,00.000000175200, 640.00000,
,,,00.000000175600, 640.00000,
,,,00.000000176000, 640.00000,
,,,00.000000176400, 640.00000,
,,,00.000000176800, 640.00000,
,,,00.000000177200, 640.00000,
,,,00.000000177600, 640.00000,
,,,00.000000178000, 620.00000,
,,,00.000000178400, 620.00000,
,,,00.000000178800, 620.00000,
,,,00.000000179200, 600.00000,
,,,00.000000179600, 620.00000,
,,,00.000000180000, 620.00000,
,,,00.000000180400, 620.00000,
,,,00.000000180800, 640.00000,
,,,00.000000181200, 640.00000,
,,,00.000000181600, 660.00000,
,,,00.000000182000, 660.00000,
,,,00.000000182400, 640.00000,
,,,00.000000182800, 640.00000,
