V52-Signale-auf-Leitungen/Oszilloskop/ALL0048/F0048CH1.CSV

Record Length,2.500000e+03,,  -0.000001250000,  10.80000,
Sample Interval,1.000000e-09,,  -0.000001249000,  11.20000,
Trigger Point,1.250000000000e+03,,  -0.000001248000,  11.40000,
,,,  -0.000001247000,  10.80000,
,,,  -0.000001246000,  11.00000,
,,,  -0.000001245000,  11.00000,
Source,CH1,,  -0.000001244000,  10.80000,
Vertical Units,V,,  -0.000001243000,  10.60000,
Vertical Scale,5.000000e+00,,  -0.000001242000,  10.20000,
Vertical Offset,2.200000e+00,,  -0.000001241000,  10.20000,
Horizontal Units,s,,  -0.000001240000,  10.80000,
Horizontal Scale,2.500000e-07,,  -0.000001239000,  10.80000,
Pt Fmt,Y,,  -0.000001238000,  10.80000,
Yzero,0.000000e+00,,  -0.000001237000,  10.60000,
Probe Atten,1.000000e+03,,  -0.000001236000,  10.80000,
Model Number,TDS1001B,,  -0.000001235000,  10.80000,
Serial Number,C051164,,  -0.000001234000,  10.60000,
Firmware Version,FV:v22.01,,  -0.000001233000,  10.80000,
,,,-00.000001232000,  10.80000,
,,,-00.000001231000,  11.00000,
,,,-00.000001230000,  11.20000,
,,,-00.000001229000,  11.40000,
,,,-00.000001228000,  11.40000,
,,,-00.000001227000,  11.20000,
,,,-00.000001226000,  11.00000,
,,,-00.000001225000,  10.80000,
,,,-00.000001224000,  11.00000,
,,,-00.000001223000,  10.80000,
,,,-00.000001222000,  11.00000,
,,,-00.000001221000,  10.80000,
,,,-00.000001220000,  10.80000,
,,,-00.000001219000,  11.00000,
,,,-00.000001218000,  11.00000,
,,,-00.000001217000,  10.80000,
,,,-00.000001216000,  11.00000,
,,,-00.000001215000,  10.80000,
,,,-00.000001214000,  11.00000,
,,,-00.000001213000,  10.80000,
,,,-00.000001212000,  10.80000,
,,,-00.000001211000,  10.40000,
,,,-00.000001210000,  10.80000,
,,,-00.000001209000,  10.80000,
,,,-00.000001208000,  10.80000,
,,,-00.000001207000,  10.60000,
,,,-00.000001206000,  10.60000,
,,,-00.000001205000,  10.40000,
,,,-00.000001204000,  10.80000,
,,,-00.000001203000,  11.00000,
,,,-00.000001202000,  11.20000,
,,,-00.000001201000,  11.00000,
,,,-00.000001200000,  10.80000,
,,,-00.000001199000,  10.80000,
,,,-00.000001198000,  11.00000,
,,,-00.000001197000,  10.80000,
,,,-00.000001196000,  10.80000,
,,,-00.000001195000,  10.80000,
,,,-00.000001194000,  11.00000,
,,,-00.000001193000,  10.60000,
,,,-00.000001192000,  10.40000,
,,,-00.000001191000,  10.40000,
,,,-00.000001190000,  10.60000,
,,,-00.000001189000,  10.40000,
,,,-00.000001188000,  10.20000,
,,,-00.000001187000,  10.40000,
,,,-00.000001186000,  10.40000,
,,,-00.000001185000,  10.20000,
,,,-00.000001184000,  10.00000,
,,,-00.000001183000,  10.20000,
,,,-00.000001182000,  10.00000,
,,,-00.000001181000,  10.40000,
,,,-00.000001180000,  10.00000,
,,,-00.000001179000,  10.00000,
,,,-00.000001178000,   9.80000,
,,,-00.000001177000,   9.80000,
,,,-00.000001176000,   9.80000,
,,,-00.000001175000,   9.40000,
,,,-00.000001174000,   9.20000,
,,,-00.000001173000,   9.00000,
,,,-00.000001172000,   9.00000,
,,,-00.000001171000,   8.40000,
,,,-00.000001170000,   8.20000,
,,,-00.000001169000,   8.40000,
,,,-00.000001168000,   8.00000,
,,,-00.000001167000,   7.80000,
,,,-00.000001166000,   7.80000,
,,,-00.000001165000,   7.60000,
,,,-00.000001164000,   7.60000,
,,,-00.000001163000,   7.60000,
,,,-00.000001162000,   7.60000,
,,,-00.000001161000,   7.40000,
,,,-00.000001160000,   7.40000,
,,,-00.000001159000,   7.60000,
,,,-00.000001158000,   7.20000,
,,,-00.000001157000,   7.20000,
,,,-00.000001156000,   7.20000,
,,,-00.000001155000,   7.00000,
,,,-00.000001154000,   6.80000,
,,,-00.000001153000,   6.60000,
,,,-00.000001152000,   6.40000,
,,,-00.000001151000,   6.40000,
,,,-00.000001150000,   6.20000,
,,,-00.000001149000,   6.40000,
,,,-00.000001148000,   6.20000,
,,,-00.000001147000,   6.20000,
,,,-00.000001146000,   5.80000,
,,,-00.000001145000,   5.60000,
,,,-00.000001144000,   5.60000,
,,,-00.000001143000,   5.60000,
,,,-00.000001142000,   5.60000,
,,,-00.000001141000,   5.40000,
,,,-00.000001140000,   5.60000,
,,,-00.000001139000,   5.40000,
,,,-00.000001138000,   5.20000,
,,,-00.000001137000,   4.80000,
,,,-00.000001136000,   4.80000,
,,,-00.000001135000,   4.80000,
,,,-00.000001134000,   5.00000,
,,,-00.000001133000,   4.80000,
,,,-00.000001132000,   4.80000,
,,,-00.000001131000,   4.80000,
,,,-00.000001130000,   5.00000,
,,,-00.000001129000,   5.00000,
,,,-00.000001128000,   4.60000,
,,,-00.000001127000,   4.40000,
,,,-00.000001126000,   3.80000,
,,,-00.000001125000,   3.60000,
,,,-00.000001124000,   3.80000,
,,,-00.000001123000,   4.00000,
,,,-00.000001122000,   4.00000,
,,,-00.000001121000,   4.00000,
,,,-00.000001120000,   4.00000,
,,,-00.000001119000,   3.80000,
,,,-00.000001118000,   4.00000,
,,,-00.000001117000,   3.80000,
,,,-00.000001116000,   3.60000,
,,,-00.000001115000,   3.40000,
,,,-00.000001114000,   3.00000,
,,,-00.000001113000,   3.20000,
,,,-00.000001112000,   3.40000,
,,,-00.000001111000,   2.80000,
,,,-00.000001110000,   3.00000,
,,,-00.000001109000,   3.00000,
,,,-00.000001108000,   3.00000,
,,,-00.000001107000,   3.20000,
,,,-00.000001106000,   2.80000,
,,,-00.000001105000,   3.20000,
,,,-00.000001104000,   3.20000,
,,,-00.000001103000,   3.20000,
,,,-00.000001102000,   3.20000,
,,,-00.000001101000,   2.80000,
,,,-00.000001100000,   2.60000,
,,,-00.000001099000,   2.40000,
,,,-00.000001098000,   2.00000,
,,,-00.000001097000,   2.00000,
,,,-00.000001096000,   2.00000,
,,,-00.000001095000,   2.00000,
,,,-00.000001094000,   2.00000,
,,,-00.000001093000,   2.00000,
,,,-00.000001092000,   2.00000,
,,,-00.000001091000,   2.00000,
,,,-00.000001090000,   2.40000,
,,,-00.000001089000,   2.40000,
,,,-00.000001088000,   2.60000,
,,,-00.000001087000,   3.00000,
,,,-00.000001086000,   2.60000,
,,,-00.000001085000,   2.60000,
,,,-00.000001084000,   2.40000,
,,,-00.000001083000,   2.60000,
,,,-00.000001082000,   2.60000,
,,,-00.000001081000,   2.80000,
,,,-00.000001080000,   2.60000,
,,,-00.000001079000,   2.60000,
,,,-00.000001078000,   2.40000,
,,,-00.000001077000,   2.40000,
,,,-00.000001076000,   2.40000,
,,,-00.000001075000,   2.20000,
,,,-00.000001074000,   2.40000,
,,,-00.000001073000,   2.60000,
,,,-00.000001072000,   2.00000,
,,,-00.000001071000,   2.00000,
,,,-00.000001070000,   1.80000,
,,,-00.000001069000,   1.80000,
,,,-00.000001068000,   1.80000,
,,,-00.000001067000,   1.80000,
,,,-00.000001066000,   1.80000,
,,,-00.000001065000,   2.00000,
,,,-00.000001064000,   2.00000,
,,,-00.000001063000,   2.00000,
,,,-00.000001062000,   2.00000,
,,,-00.000001061000,   2.40000,
,,,-00.000001060000,   2.40000,
,,,-00.000001059000,   2.20000,
,,,-00.000001058000,   1.80000,
,,,-00.000001057000,   1.80000,
,,,-00.000001056000,   1.80000,
,,,-00.000001055000,   1.80000,
,,,-00.000001054000,   1.80000,
,,,-00.000001053000,   1.80000,
,,,-00.000001052000,   2.20000,
,,,-00.000001051000,   2.00000,
,,,-00.000001050000,   2.00000,
,,,-00.000001049000,   1.80000,
,,,-00.000001048000,   1.60000,
,,,-00.000001047000,   1.60000,
,,,-00.000001046000,   2.00000,
,,,-00.000001045000,   1.80000,
,,,-00.000001044000,   1.80000,
,,,-00.000001043000,   1.80000,
,,,-00.000001042000,   1.80000,
,,,-00.000001041000,   1.40000,
,,,-00.000001040000,   1.40000,
,,,-00.000001039000,   1.60000,
,,,-00.000001038000,   1.40000,
,,,-00.000001037000,   1.40000,
,,,-00.000001036000,   1.40000,
,,,-00.000001035000,   1.60000,
,,,-00.000001034000,   1.60000,
,,,-00.000001033000,   1.60000,
,,,-00.000001032000,   2.00000,
,,,-00.000001031000,   2.00000,
,,,-00.000001030000,   2.00000,
,,,-00.000001029000,   1.80000,
,,,-00.000001028000,   2.00000,
,,,-00.000001027000,   1.80000,
,,,-00.000001026000,   1.80000,
,,,-00.000001025000,   1.60000,
,,,-00.000001024000,   1.40000,
,,,-00.000001023000,   1.40000,
,,,-00.000001022000,   1.40000,
,,,-00.000001021000,   1.60000,
,,,-00.000001020000,   1.40000,
,,,-00.000001019000,   1.20000,
,,,-00.000001018000,   1.20000,
,,,-00.000001017000,   1.40000,
,,,-00.000001016000,   1.20000,
,,,-00.000001015000,   1.40000,
,,,-00.000001014000,   1.40000,
,,,-00.000001013000,   1.60000,
,,,-00.000001012000,   1.60000,
,,,-00.000001011000,   1.80000,
,,,-00.000001010000,   1.40000,
,,,-00.000001009000,   1.40000,
,,,-00.000001008000,   0.80000,
,,,-00.000001007000,   1.20000,
,,,-00.000001006000,   1.20000,
,,,-00.000001005000,   0.80000,
,,,-00.000001004000,   0.80000,
,,,-00.000001003000,   1.00000,
,,,-00.000001002000,   0.80000,
,,,-00.000001001000,   1.00000,
,,,-00.000001000000,   0.80000,
,,,-00.000000999000,   0.80000,
,,,-00.000000998000,   0.80000,
,,,-00.000000997000,   1.00000,
,,,-00.000000996000,   0.80000,
,,,-00.000000995000,   0.80000,
,,,-00.000000994000,   0.60000,
,,,-00.000000993000,   0.80000,
,,,-00.000000992000,   1.00000,
,,,-00.000000991000,   1.20000,
,,,-00.000000990000,   1.00000,
,,,-00.000000989000,   1.20000,
,,,-00.000000988000,   1.00000,
,,,-00.000000987000,   1.20000,
,,,-00.000000986000,   0.80000,
,,,-00.000000985000,   1.20000,
,,,-00.000000984000,   1.20000,
,,,-00.000000983000,   1.20000,
,,,-00.000000982000,   1.20000,
,,,-00.000000981000,   1.20000,
,,,-00.000000980000,   1.20000,
,,,-00.000000979000,   1.20000,
,,,-00.000000978000,   1.40000,
,,,-00.000000977000,   1.40000,
,,,-00.000000976000,   1.40000,
,,,-00.000000975000,   1.40000,
,,,-00.000000974000,   1.40000,
,,,-00.000000973000,   1.20000,
,,,-00.000000972000,   1.00000,
,,,-00.000000971000,   1.00000,
,,,-00.000000970000,   1.20000,
,,,-00.000000969000,   1.20000,
,,,-00.000000968000,   1.00000,
,,,-00.000000967000,   1.20000,
,,,-00.000000966000,   1.40000,
,,,-00.000000965000,   1.40000,
,,,-00.000000964000,   1.60000,
,,,-00.000000963000,   1.40000,
,,,-00.000000962000,   1.80000,
,,,-00.000000961000,   1.60000,
,,,-00.000000960000,   1.40000,
,,,-00.000000959000,   1.60000,
,,,-00.000000958000,   1.60000,
,,,-00.000000957000,   1.60000,
,,,-00.000000956000,   1.60000,
,,,-00.000000955000,   1.80000,
,,,-00.000000954000,   1.80000,
,,,-00.000000953000,   1.40000,
,,,-00.000000952000,   1.40000,
,,,-00.000000951000,   1.40000,
,,,-00.000000950000,   1.40000,
,,,-00.000000949000,   1.60000,
,,,-00.000000948000,   1.40000,
,,,-00.000000947000,   1.40000,
,,,-00.000000946000,   1.40000,
,,,-00.000000945000,   1.20000,
,,,-00.000000944000,   1.40000,
,,,-00.000000943000,   1.20000,
,,,-00.000000942000,   1.00000,
,,,-00.000000941000,   1.00000,
,,,-00.000000940000,   1.40000,
,,,-00.000000939000,   1.20000,
,,,-00.000000938000,   1.20000,
,,,-00.000000937000,   1.40000,
,,,-00.000000936000,   1.60000,
,,,-00.000000935000,   1.20000,
,,,-00.000000934000,   1.60000,
,,,-00.000000933000,   1.60000,
,,,-00.000000932000,   1.60000,
,,,-00.000000931000,   1.60000,
,,,-00.000000930000,   1.40000,
,,,-00.000000929000,   1.00000,
,,,-00.000000928000,   1.00000,
,,,-00.000000927000,   1.00000,
,,,-00.000000926000,   1.00000,
,,,-00.000000925000,   1.00000,
,,,-00.000000924000,   1.20000,
,,,-00.000000923000,   1.00000,
,,,-00.000000922000,   1.60000,
,,,-00.000000921000,   1.20000,
,,,-00.000000920000,   1.20000,
,,,-00.000000919000,   1.00000,
,,,-00.000000918000,   1.00000,
,,,-00.000000917000,   1.00000,
,,,-00.000000916000,   0.80000,
,,,-00.000000915000,   0.80000,
,,,-00.000000914000,   0.80000,
,,,-00.000000913000,   1.00000,
,,,-00.000000912000,   1.00000,
,,,-00.000000911000,   1.00000,
,,,-00.000000910000,   0.80000,
,,,-00.000000909000,   0.80000,
,,,-00.000000908000,   0.80000,
,,,-00.000000907000,   1.00000,
,,,-00.000000906000,   1.00000,
,,,-00.000000905000,   0.80000,
,,,-00.000000904000,   0.80000,
,,,-00.000000903000,   0.60000,
,,,-00.000000902000,   0.80000,
,,,-00.000000901000,   1.00000,
,,,-00.000000900000,   1.00000,
,,,-00.000000899000,   1.00000,
,,,-00.000000898000,   1.20000,
,,,-00.000000897000,   0.80000,
,,,-00.000000896000,   0.80000,
,,,-00.000000895000,   0.80000,
,,,-00.000000894000,   0.80000,
,,,-00.000000893000,   0.80000,
,,,-00.000000892000,   0.60000,
,,,-00.000000891000,   0.80000,
,,,-00.000000890000,   0.80000,
,,,-00.000000889000,   0.40000,
,,,-00.000000888000,   0.60000,
,,,-00.000000887000,   0.60000,
,,,-00.000000886000,   0.60000,
,,,-00.000000885000,   0.20000,
,,,-00.000000884000,   0.40000,
,,,-00.000000883000,   0.40000,
,,,-00.000000882000,   0.40000,
,,,-00.000000881000,   0.40000,
,,,-00.000000880000,   0.40000,
,,,-00.000000879000,   0.80000,
,,,-00.000000878000,   0.40000,
,,,-00.000000877000,   0.20000,
,,,-00.000000876000,   0.20000,
,,,-00.000000875000,   0.20000,
,,,-00.000000874000,   0.40000,
,,,-00.000000873000,   0.40000,
,,,-00.000000872000,   0.40000,
,,,-00.000000871000,   0.20000,
,,,-00.000000870000,   0.40000,
,,,-00.000000869000,   0.20000,
,,,-00.000000868000,   0.40000,
,,,-00.000000867000,   0.60000,
,,,-00.000000866000,   0.80000,
,,,-00.000000865000,   1.20000,
,,,-00.000000864000,   1.00000,
,,,-00.000000863000,   0.80000,
,,,-00.000000862000,   1.00000,
,,,-00.000000861000,   0.60000,
,,,-00.000000860000,   0.60000,
,,,-00.000000859000,   0.80000,
,,,-00.000000858000,   0.80000,
,,,-00.000000857000,   0.80000,
,,,-00.000000856000,   0.80000,
,,,-00.000000855000,   1.00000,
,,,-00.000000854000,   1.00000,
,,,-00.000000853000,   1.00000,
,,,-00.000000852000,   0.80000,
,,,-00.000000851000,   0.80000,
,,,-00.000000850000,   0.80000,
,,,-00.000000849000,   0.80000,
,,,-00.000000848000,   1.00000,
,,,-00.000000847000,   0.80000,
,,,-00.000000846000,   1.00000,
,,,-00.000000845000,   0.80000,
,,,-00.000000844000,   1.00000,
,,,-00.000000843000,   0.80000,
,,,-00.000000842000,   0.80000,
,,,-00.000000841000,   0.60000,
,,,-00.000000840000,   0.60000,
,,,-00.000000839000,   0.80000,
,,,-00.000000838000,   0.60000,
,,,-00.000000837000,   0.80000,
,,,-00.000000836000,   0.40000,
,,,-00.000000835000,   0.40000,
,,,-00.000000834000,   0.40000,
,,,-00.000000833000,   0.40000,
,,,-00.000000832000,   0.60000,
,,,-00.000000831000,   0.40000,
,,,-00.000000830000,   0.60000,
,,,-00.000000829000,   0.60000,
,,,-00.000000828000,   0.40000,
,,,-00.000000827000,   0.80000,
,,,-00.000000826000,   0.60000,
,,,-00.000000825000,   0.60000,
,,,-00.000000824000,   1.00000,
,,,-00.000000823000,   1.20000,
,,,-00.000000822000,   1.00000,
,,,-00.000000821000,   1.20000,
,,,-00.000000820000,   1.00000,
,,,-00.000000819000,   1.00000,
,,,-00.000000818000,   0.80000,
,,,-00.000000817000,   0.60000,
,,,-00.000000816000,   0.40000,
,,,-00.000000815000,   0.60000,
,,,-00.000000814000,   0.60000,
,,,-00.000000813000,   0.60000,
,,,-00.000000812000,   0.80000,
,,,-00.000000811000,   0.60000,
,,,-00.000000810000,   0.80000,
,,,-00.000000809000,   0.80000,
,,,-00.000000808000,   0.60000,
,,,-00.000000807000,   0.60000,
,,,-00.000000806000,   0.40000,
,,,-00.000000805000,   0.80000,
,,,-00.000000804000,   0.40000,
,,,-00.000000803000,   0.60000,
,,,-00.000000802000,   0.40000,
,,,-00.000000801000,   0.40000,
,,,-00.000000800000,   0.40000,
,,,-00.000000799000,   0.60000,
,,,-00.000000798000,   0.40000,
,,,-00.000000797000,   0.40000,
,,,-00.000000796000,   0.40000,
,,,-00.000000795000,   0.40000,
,,,-00.000000794000,   0.40000,
,,,-00.000000793000,   0.20000,
,,,-00.000000792000,   0.60000,
,,,-00.000000791000,   0.40000,
,,,-00.000000790000,   0.80000,
,,,-00.000000789000,   0.60000,
,,,-00.000000788000,   0.40000,
,,,-00.000000787000,   0.60000,
,,,-00.000000786000,   0.80000,
,,,-00.000000785000,   0.80000,
,,,-00.000000784000,   1.00000,
,,,-00.000000783000,   1.00000,
,,,-00.000000782000,   0.80000,
,,,-00.000000781000,   0.80000,
,,,-00.000000780000,   0.80000,
,,,-00.000000779000,   0.80000,
,,,-00.000000778000,   0.80000,
,,,-00.000000777000,   1.00000,
,,,-00.000000776000,   1.00000,
,,,-00.000000775000,   0.80000,
,,,-00.000000774000,   1.20000,
,,,-00.000000773000,   1.00000,
,,,-00.000000772000,   1.00000,
,,,-00.000000771000,   1.00000,
,,,-00.000000770000,   1.20000,
,,,-00.000000769000,   1.20000,
,,,-00.000000768000,   1.00000,
,,,-00.000000767000,   1.20000,
,,,-00.000000766000,   0.80000,
,,,-00.000000765000,   1.00000,
,,,-00.000000764000,   0.80000,
,,,-00.000000763000,   0.80000,
,,,-00.000000762000,   0.80000,
,,,-00.000000761000,   0.80000,
,,,-00.000000760000,   0.60000,
,,,-00.000000759000,   0.40000,
,,,-00.000000758000,   0.60000,
,,,-00.000000757000,   0.80000,
,,,-00.000000756000,   0.60000,
,,,-00.000000755000,   0.80000,
,,,-00.000000754000,   0.80000,
,,,-00.000000753000,   0.80000,
,,,-00.000000752000,   0.60000,
,,,-00.000000751000,   0.60000,
,,,-00.000000750000,   0.40000,
,,,-00.000000749000,   0.20000,
,,,-00.000000748000,   0.20000,
,,,-00.000000747000,   0.00000,
,,,-00.000000746000,   0.20000,
,,,-00.000000745000,   0.20000,
,,,-00.000000744000,   0.40000,
,,,-00.000000743000,   0.40000,
,,,-00.000000742000,   0.20000,
,,,-00.000000741000,   0.20000,
,,,-00.000000740000,   0.20000,
,,,-00.000000739000,   0.00000,
,,,-00.000000738000,   0.00000,
,,,-00.000000737000,   0.00000,
,,,-00.000000736000,  -0.40000,
,,,-00.000000735000,   0.00000,
,,,-00.000000734000,   0.00000,
,,,-00.000000733000,  -0.20000,
,,,-00.000000732000,  -0.20000,
,,,-00.000000731000,  -0.60000,
,,,-00.000000730000,  -0.40000,
,,,-00.000000729000,  -0.20000,
,,,-00.000000728000,  -0.40000,
,,,-00.000000727000,   0.00000,
,,,-00.000000726000,   0.20000,
,,,-00.000000725000,   0.00000,
,,,-00.000000724000,   0.40000,
,,,-00.000000723000,   0.20000,
,,,-00.000000722000,   0.00000,
,,,-00.000000721000,   0.20000,
,,,-00.000000720000,   0.20000,
,,,-00.000000719000,   0.40000,
,,,-00.000000718000,   0.40000,
,,,-00.000000717000,   0.20000,
,,,-00.000000716000,   0.00000,
,,,-00.000000715000,  -0.20000,
,,,-00.000000714000,   0.00000,
,,,-00.000000713000,   0.20000,
,,,-00.000000712000,   0.20000,
,,,-00.000000711000,   0.20000,
,,,-00.000000710000,   0.20000,
,,,-00.000000709000,   0.40000,
,,,-00.000000708000,   0.40000,
,,,-00.000000707000,   0.20000,
,,,-00.000000706000,   0.20000,
,,,-00.000000705000,   0.20000,
,,,-00.000000704000,   0.20000,
,,,-00.000000703000,   0.00000,
,,,-00.000000702000,  -0.20000,
,,,-00.000000701000,  -0.20000,
,,,-00.000000700000,   0.00000,
,,,-00.000000699000,  -0.20000,
,,,-00.000000698000,  -0.20000,
,,,-00.000000697000,  -0.20000,
,,,-00.000000696000,  -0.40000,
,,,-00.000000695000,  -0.40000,
,,,-00.000000694000,  -0.60000,
,,,-00.000000693000,  -1.00000,
,,,-00.000000692000,  -1.20000,
,,,-00.000000691000,  -1.40000,
,,,-00.000000690000,  -1.60000,
,,,-00.000000689000,  -2.20000,
,,,-00.000000688000,  -2.40000,
,,,-00.000000687000,  -2.80000,
,,,-00.000000686000,  -3.00000,
,,,-00.000000685000,  -3.20000,
,,,-00.000000684000,  -3.60000,
,,,-00.000000683000,  -4.20000,
,,,-00.000000682000,  -4.40000,
,,,-00.000000681000,  -4.40000,
,,,-00.000000680000,  -5.00000,
,,,-00.000000679000,  -5.00000,
,,,-00.000000678000,  -5.40000,
,,,-00.000000677000,  -5.40000,
,,,-00.000000676000,  -6.20000,
,,,-00.000000675000,  -6.00000,
,,,-00.000000674000,  -6.60000,
,,,-00.000000673000,  -6.20000,
,,,-00.000000672000,  -6.40000,
,,,-00.000000671000,  -6.40000,
,,,-00.000000670000,  -6.60000,
,,,-00.000000669000,  -7.00000,
,,,-00.000000668000,  -7.40000,
,,,-00.000000667000,  -7.80000,
,,,-00.000000666000,  -8.40000,
,,,-00.000000665000,  -8.60000,
,,,-00.000000664000,  -9.00000,
,,,-00.000000663000,  -9.20000,
,,,-00.000000662000,  -9.20000,
,,,-00.000000661000,  -9.60000,
,,,-00.000000660000,  -9.80000,
,,,-00.000000659000, -10.20000,
,,,-00.000000658000, -10.20000,
,,,-00.000000657000, -10.40000,
,,,-00.000000656000, -10.40000,
,,,-00.000000655000, -10.80000,
,,,-00.000000654000, -10.60000,
,,,-00.000000653000, -10.60000,
,,,-00.000000652000, -11.00000,
,,,-00.000000651000, -10.60000,
,,,-00.000000650000, -10.60000,
,,,-00.000000649000, -10.80000,
,,,-00.000000648000, -11.00000,
,,,-00.000000647000, -11.00000,
,,,-00.000000646000, -11.60000,
,,,-00.000000645000, -11.60000,
,,,-00.000000644000, -11.60000,
,,,-00.000000643000, -11.60000,
,,,-00.000000642000, -11.60000,
,,,-00.000000641000, -11.80000,
,,,-00.000000640000, -11.80000,
,,,-00.000000639000, -12.00000,
,,,-00.000000638000, -12.40000,
,,,-00.000000637000, -12.00000,
