V52-Signale-auf-Leitungen/Oszilloskop/ALL0054/F0054CH1.CSV

Record Length,2.500000e+03,,  -0.000000300000,-1256.00000,
Sample Interval,2.000000e-10,,  -0.000000299800,-1256.00000,
Trigger Point,1.500000000000e+03,,  -0.000000299600,-1256.00000,
,,,  -0.000000299400,-1256.00000,
,,,  -0.000000299200,-1248.00000,
,,,  -0.000000299000,-1248.00000,
Source,CH1,,  -0.000000298800,-1248.00000,
Vertical Units,V,,  -0.000000298600,-1248.00000,
Vertical Scale,2.000000e+02,,  -0.000000298400,-1248.00000,
Vertical Offset,5.680000e+02,,  -0.000000298200,-1248.00000,
Horizontal Units,s,,  -0.000000298000,-1248.00000,
Horizontal Scale,5.000000e-08,,  -0.000000297800,-1248.00000,
Pt Fmt,Y,,  -0.000000297600,-1248.00000,
Yzero,0.000000e+00,,  -0.000000297400,-1248.00000,
Probe Atten,1.000000e+03,,  -0.000000297200,-1248.00000,
Model Number,TDS1001B,,  -0.000000297000,-1256.00000,
Serial Number,C051164,,  -0.000000296800,-1256.00000,
Firmware Version,FV:v22.01,,  -0.000000296600,-1256.00000,
,,,-00.000000296400,-1256.00000,
,,,-00.000000296200,-1256.00000,
,,,-00.000000296000,-1256.00000,
,,,-00.000000295800,-1256.00000,
,,,-00.000000295600,-1256.00000,
,,,-00.000000295400,-1256.00000,
,,,-00.000000295200,-1256.00000,
,,,-00.000000295000,-1256.00000,
,,,-00.000000294800,-1256.00000,
,,,-00.000000294600,-1256.00000,
,,,-00.000000294400,-1256.00000,
,,,-00.000000294200,-1256.00000,
,,,-00.000000294000,-1256.00000,
,,,-00.000000293800,-1256.00000,
,,,-00.000000293600,-1256.00000,
,,,-00.000000293400,-1256.00000,
,,,-00.000000293200,-1248.00000,
,,,-00.000000293000,-1256.00000,
,,,-00.000000292800,-1256.00000,
,,,-00.000000292600,-1256.00000,
,,,-00.000000292400,-1256.00000,
,,,-00.000000292200,-1256.00000,
,,,-00.000000292000,-1256.00000,
,,,-00.000000291800,-1256.00000,
,,,-00.000000291600,-1256.00000,
,,,-00.000000291400,-1256.00000,
,,,-00.000000291200,-1248.00000,
,,,-00.000000291000,-1248.00000,
,,,-00.000000290800,-1256.00000,
,,,-00.000000290600,-1256.00000,
,,,-00.000000290400,-1256.00000,
,,,-00.000000290200,-1256.00000,
,,,-00.000000290000,-1264.00000,
,,,-00.000000289800,-1264.00000,
,,,-00.000000289600,-1264.00000,
,,,-00.000000289400,-1264.00000,
,,,-00.000000289200,-1264.00000,
,,,-00.000000289000,-1264.00000,
,,,-00.000000288800,-1264.00000,
,,,-00.000000288600,-1256.00000,
,,,-00.000000288400,-1256.00000,
,,,-00.000000288200,-1248.00000,
,,,-00.000000288000,-1248.00000,
,,,-00.000000287800,-1248.00000,
,,,-00.000000287600,-1248.00000,
,,,-00.000000287400,-1248.00000,
,,,-00.000000287200,-1248.00000,
,,,-00.000000287000,-1248.00000,
,,,-00.000000286800,-1248.00000,
,,,-00.000000286600,-1248.00000,
,,,-00.000000286400,-1248.00000,
,,,-00.000000286200,-1240.00000,
,,,-00.000000286000,-1240.00000,
,,,-00.000000285800,-1248.00000,
,,,-00.000000285600,-1248.00000,
,,,-00.000000285400,-1248.00000,
,,,-00.000000285200,-1248.00000,
,,,-00.000000285000,-1256.00000,
,,,-00.000000284800,-1256.00000,
,,,-00.000000284600,-1256.00000,
,,,-00.000000284400,-1256.00000,
,,,-00.000000284200,-1256.00000,
,,,-00.000000284000,-1264.00000,
,,,-00.000000283800,-1264.00000,
,,,-00.000000283600,-1264.00000,
,,,-00.000000283400,-1264.00000,
,,,-00.000000283200,-1264.00000,
,,,-00.000000283000,-1264.00000,
,,,-00.000000282800,-1264.00000,
,,,-00.000000282600,-1264.00000,
,,,-00.000000282400,-1264.00000,
,,,-00.000000282200,-1256.00000,
,,,-00.000000282000,-1256.00000,
,,,-00.000000281800,-1256.00000,
,,,-00.000000281600,-1256.00000,
,,,-00.000000281400,-1256.00000,
,,,-00.000000281200,-1248.00000,
,,,-00.000000281000,-1248.00000,
,,,-00.000000280800,-1248.00000,
,,,-00.000000280600,-1248.00000,
,,,-00.000000280400,-1240.00000,
,,,-00.000000280200,-1240.00000,
,,,-00.000000280000,-1240.00000,
,,,-00.000000279800,-1248.00000,
,,,-00.000000279600,-1248.00000,
,,,-00.000000279400,-1248.00000,
,,,-00.000000279200,-1248.00000,
,,,-00.000000279000,-1256.00000,
,,,-00.000000278800,-1256.00000,
,,,-00.000000278600,-1256.00000,
,,,-00.000000278400,-1256.00000,
,,,-00.000000278200,-1256.00000,
,,,-00.000000278000,-1256.00000,
,,,-00.000000277800,-1256.00000,
,,,-00.000000277600,-1248.00000,
,,,-00.000000277400,-1248.00000,
,,,-00.000000277200,-1240.00000,
,,,-00.000000277000,-1240.00000,
,,,-00.000000276800,-1240.00000,
,,,-00.000000276600,-1240.00000,
,,,-00.000000276400,-1240.00000,
,,,-00.000000276200,-1240.00000,
,,,-00.000000276000,-1248.00000,
,,,-00.000000275800,-1248.00000,
,,,-00.000000275600,-1248.00000,
,,,-00.000000275400,-1248.00000,
,,,-00.000000275200,-1248.00000,
,,,-00.000000275000,-1256.00000,
,,,-00.000000274800,-1256.00000,
,,,-00.000000274600,-1256.00000,
,,,-00.000000274400,-1256.00000,
,,,-00.000000274200,-1256.00000,
,,,-00.000000274000,-1256.00000,
,,,-00.000000273800,-1264.00000,
,,,-00.000000273600,-1264.00000,
,,,-00.000000273400,-1256.00000,
,,,-00.000000273200,-1256.00000,
,,,-00.000000273000,-1256.00000,
,,,-00.000000272800,-1256.00000,
,,,-00.000000272600,-1256.00000,
,,,-00.000000272400,-1256.00000,
,,,-00.000000272200,-1248.00000,
,,,-00.000000272000,-1248.00000,
,,,-00.000000271800,-1248.00000,
,,,-00.000000271600,-1248.00000,
,,,-00.000000271400,-1240.00000,
,,,-00.000000271200,-1240.00000,
,,,-00.000000271000,-1240.00000,
,,,-00.000000270800,-1248.00000,
,,,-00.000000270600,-1248.00000,
,,,-00.000000270400,-1248.00000,
,,,-00.000000270200,-1248.00000,
,,,-00.000000270000,-1256.00000,
,,,-00.000000269800,-1256.00000,
,,,-00.000000269600,-1256.00000,
,,,-00.000000269400,-1256.00000,
,,,-00.000000269200,-1256.00000,
,,,-00.000000269000,-1256.00000,
,,,-00.000000268800,-1256.00000,
,,,-00.000000268600,-1256.00000,
,,,-00.000000268400,-1256.00000,
,,,-00.000000268200,-1248.00000,
,,,-00.000000268000,-1248.00000,
,,,-00.000000267800,-1248.00000,
,,,-00.000000267600,-1248.00000,
,,,-00.000000267400,-1248.00000,
,,,-00.000000267200,-1248.00000,
,,,-00.000000267000,-1248.00000,
,,,-00.000000266800,-1248.00000,
,,,-00.000000266600,-1248.00000,
,,,-00.000000266400,-1248.00000,
,,,-00.000000266200,-1248.00000,
,,,-00.000000266000,-1248.00000,
,,,-00.000000265800,-1248.00000,
,,,-00.000000265600,-1248.00000,
,,,-00.000000265400,-1248.00000,
,,,-00.000000265200,-1248.00000,
,,,-00.000000265000,-1248.00000,
,,,-00.000000264800,-1248.00000,
,,,-00.000000264600,-1248.00000,
,,,-00.000000264400,-1248.00000,
,,,-00.000000264200,-1248.00000,
,,,-00.000000264000,-1248.00000,
,,,-00.000000263800,-1248.00000,
,,,-00.000000263600,-1248.00000,
,,,-00.000000263400,-1248.00000,
,,,-00.000000263200,-1248.00000,
,,,-00.000000263000,-1256.00000,
,,,-00.000000262800,-1256.00000,
,,,-00.000000262600,-1256.00000,
,,,-00.000000262400,-1256.00000,
,,,-00.000000262200,-1256.00000,
,,,-00.000000262000,-1264.00000,
,,,-00.000000261800,-1264.00000,
,,,-00.000000261600,-1264.00000,
,,,-00.000000261400,-1264.00000,
,,,-00.000000261200,-1256.00000,
,,,-00.000000261000,-1256.00000,
,,,-00.000000260800,-1256.00000,
,,,-00.000000260600,-1248.00000,
,,,-00.000000260400,-1248.00000,
,,,-00.000000260200,-1240.00000,
,,,-00.000000260000,-1240.00000,
,,,-00.000000259800,-1240.00000,
,,,-00.000000259600,-1240.00000,
,,,-00.000000259400,-1240.00000,
,,,-00.000000259200,-1240.00000,
,,,-00.000000259000,-1248.00000,
,,,-00.000000258800,-1248.00000,
,,,-00.000000258600,-1248.00000,
,,,-00.000000258400,-1248.00000,
,,,-00.000000258200,-1248.00000,
,,,-00.000000258000,-1256.00000,
,,,-00.000000257800,-1256.00000,
,,,-00.000000257600,-1256.00000,
,,,-00.000000257400,-1256.00000,
,,,-00.000000257200,-1256.00000,
,,,-00.000000257000,-1256.00000,
,,,-00.000000256800,-1264.00000,
,,,-00.000000256600,-1264.00000,
,,,-00.000000256400,-1256.00000,
,,,-00.000000256200,-1256.00000,
,,,-00.000000256000,-1256.00000,
,,,-00.000000255800,-1256.00000,
,,,-00.000000255600,-1256.00000,
,,,-00.000000255400,-1256.00000,
,,,-00.000000255200,-1248.00000,
,,,-00.000000255000,-1256.00000,
,,,-00.000000254800,-1256.00000,
,,,-00.000000254600,-1256.00000,
,,,-00.000000254400,-1256.00000,
,,,-00.000000254200,-1256.00000,
,,,-00.000000254000,-1256.00000,
,,,-00.000000253800,-1256.00000,
,,,-00.000000253600,-1256.00000,
,,,-00.000000253400,-1256.00000,
,,,-00.000000253200,-1248.00000,
,,,-00.000000253000,-1248.00000,
,,,-00.000000252800,-1248.00000,
,,,-00.000000252600,-1248.00000,
,,,-00.000000252400,-1240.00000,
,,,-00.000000252200,-1240.00000,
,,,-00.000000252000,-1248.00000,
,,,-00.000000251800,-1248.00000,
,,,-00.000000251600,-1248.00000,
,,,-00.000000251400,-1248.00000,
,,,-00.000000251200,-1248.00000,
,,,-00.000000251000,-1248.00000,
,,,-00.000000250800,-1248.00000,
,,,-00.000000250600,-1248.00000,
,,,-00.000000250400,-1248.00000,
,,,-00.000000250200,-1248.00000,
,,,-00.000000250000,-1256.00000,
,,,-00.000000249800,-1256.00000,
,,,-00.000000249600,-1256.00000,
,,,-00.000000249400,-1256.00000,
,,,-00.000000249200,-1256.00000,
,,,-00.000000249000,-1256.00000,
,,,-00.000000248800,-1256.00000,
,,,-00.000000248600,-1256.00000,
,,,-00.000000248400,-1256.00000,
,,,-00.000000248200,-1248.00000,
,,,-00.000000248000,-1248.00000,
,,,-00.000000247800,-1248.00000,
,,,-00.000000247600,-1248.00000,
,,,-00.000000247400,-1248.00000,
,,,-00.000000247200,-1248.00000,
,,,-00.000000247000,-1248.00000,
,,,-00.000000246800,-1248.00000,
,,,-00.000000246600,-1248.00000,
,,,-00.000000246400,-1248.00000,
,,,-00.000000246200,-1248.00000,
,,,-00.000000246000,-1248.00000,
,,,-00.000000245800,-1248.00000,
,,,-00.000000245600,-1248.00000,
,,,-00.000000245400,-1248.00000,
,,,-00.000000245200,-1240.00000,
,,,-00.000000245000,-1248.00000,
,,,-00.000000244800,-1248.00000,
,,,-00.000000244600,-1248.00000,
,,,-00.000000244400,-1248.00000,
,,,-00.000000244200,-1248.00000,
,,,-00.000000244000,-1256.00000,
,,,-00.000000243800,-1256.00000,
,,,-00.000000243600,-1256.00000,
,,,-00.000000243400,-1256.00000,
,,,-00.000000243200,-1248.00000,
,,,-00.000000243000,-1248.00000,
,,,-00.000000242800,-1248.00000,
,,,-00.000000242600,-1240.00000,
,,,-00.000000242400,-1240.00000,
,,,-00.000000242200,-1232.00000,
,,,-00.000000242000,-1232.00000,
,,,-00.000000241800,-1232.00000,
,,,-00.000000241600,-1232.00000,
,,,-00.000000241400,-1232.00000,
,,,-00.000000241200,-1232.00000,
,,,-00.000000241000,-1240.00000,
,,,-00.000000240800,-1240.00000,
,,,-00.000000240600,-1240.00000,
,,,-00.000000240400,-1240.00000,
,,,-00.000000240200,-1240.00000,
,,,-00.000000240000,-1248.00000,
,,,-00.000000239800,-1248.00000,
,,,-00.000000239600,-1248.00000,
,,,-00.000000239400,-1248.00000,
,,,-00.000000239200,-1240.00000,
,,,-00.000000239000,-1240.00000,
,,,-00.000000238800,-1240.00000,
,,,-00.000000238600,-1232.00000,
,,,-00.000000238400,-1232.00000,
,,,-00.000000238200,-1224.00000,
,,,-00.000000238000,-1224.00000,
,,,-00.000000237800,-1224.00000,
,,,-00.000000237600,-1224.00000,
,,,-00.000000237400,-1224.00000,
,,,-00.000000237200,-1224.00000,
,,,-00.000000237000,-1232.00000,
,,,-00.000000236800,-1232.00000,
,,,-00.000000236600,-1232.00000,
,,,-00.000000236400,-1232.00000,
,,,-00.000000236200,-1232.00000,
,,,-00.000000236000,-1240.00000,
,,,-00.000000235800,-1240.00000,
,,,-00.000000235600,-1240.00000,
,,,-00.000000235400,-1240.00000,
,,,-00.000000235200,-1232.00000,
,,,-00.000000235000,-1232.00000,
,,,-00.000000234800,-1232.00000,
,,,-00.000000234600,-1224.00000,
,,,-00.000000234400,-1224.00000,
,,,-00.000000234200,-1216.00000,
,,,-00.000000234000,-1224.00000,
,,,-00.000000233800,-1224.00000,
,,,-00.000000233600,-1224.00000,
,,,-00.000000233400,-1224.00000,
,,,-00.000000233200,-1224.00000,
,,,-00.000000233000,-1224.00000,
,,,-00.000000232800,-1224.00000,
,,,-00.000000232600,-1216.00000,
,,,-00.000000232400,-1216.00000,
,,,-00.000000232200,-1208.00000,
,,,-00.000000232000,-1208.00000,
,,,-00.000000231800,-1200.00000,
,,,-00.000000231600,-1200.00000,
,,,-00.000000231400,-1200.00000,
,,,-00.000000231200,-1192.00000,
,,,-00.000000231000,-1192.00000,
,,,-00.000000230800,-1192.00000,
,,,-00.000000230600,-1192.00000,
,,,-00.000000230400,-1192.00000,
,,,-00.000000230200,-1192.00000,
,,,-00.000000230000,-1192.00000,
,,,-00.000000229800,-1200.00000,
,,,-00.000000229600,-1200.00000,
,,,-00.000000229400,-1192.00000,
,,,-00.000000229200,-1192.00000,
,,,-00.000000229000,-1192.00000,
,,,-00.000000228800,-1192.00000,
,,,-00.000000228600,-1184.00000,
,,,-00.000000228400,-1184.00000,
,,,-00.000000228200,-1176.00000,
,,,-00.000000228000,-1176.00000,
,,,-00.000000227800,-1176.00000,
,,,-00.000000227600,-1176.00000,
,,,-00.000000227400,-1176.00000,
,,,-00.000000227200,-1168.00000,
,,,-00.000000227000,-1168.00000,
,,,-00.000000226800,-1168.00000,
,,,-00.000000226600,-1168.00000,
,,,-00.000000226400,-1168.00000,
,,,-00.000000226200,-1160.00000,
,,,-00.000000226000,-1160.00000,
,,,-00.000000225800,-1152.00000,
,,,-00.000000225600,-1152.00000,
,,,-00.000000225400,-1144.00000,
,,,-00.000000225200,-1136.00000,
,,,-00.000000225000,-1136.00000,
,,,-00.000000224800,-1136.00000,
,,,-00.000000224600,-1128.00000,
,,,-00.000000224400,-1128.00000,
,,,-00.000000224200,-1120.00000,
,,,-00.000000224000,-1120.00000,
,,,-00.000000223800,-1120.00000,
,,,-00.000000223600,-1112.00000,
,,,-00.000000223400,-1112.00000,
,,,-00.000000223200,-1104.00000,
,,,-00.000000223000,-1104.00000,
,,,-00.000000222800,-1096.00000,
,,,-00.000000222600,-1096.00000,
,,,-00.000000222400,-1088.00000,
,,,-00.000000222200,-1080.00000,
,,,-00.000000222000,-1080.00000,
,,,-00.000000221800,-1072.00000,
,,,-00.000000221600,-1072.00000,
,,,-00.000000221400,-1072.00000,
,,,-00.000000221200,-1064.00000,
,,,-00.000000221000,-1064.00000,
,,,-00.000000220800,-1064.00000,
,,,-00.000000220600,-1064.00000,
,,,-00.000000220400,-1064.00000,
,,,-00.000000220200,-1056.00000,
,,,-00.000000220000,-1056.00000,
,,,-00.000000219800,-1048.00000,
,,,-00.000000219600,-1048.00000,
,,,-00.000000219400,-1040.00000,
,,,-00.000000219200,-1032.00000,
,,,-00.000000219000,-1032.00000,
,,,-00.000000218800,-1032.00000,
,,,-00.000000218600,-1024.00000,
,,,-00.000000218400,-1024.00000,
,,,-00.000000218200,-1016.00000,
,,,-00.000000218000,-1016.00000,
,,,-00.000000217800,-1016.00000,
,,,-00.000000217600,-1008.00000,
,,,-00.000000217400,-1008.00000,
,,,-00.000000217200,-1000.00000,
,,,-00.000000217000,-1000.00000,
,,,-00.000000216800,-992.00000,
,,,-00.000000216600,-984.00000,
,,,-00.000000216400,-984.00000,
,,,-00.000000216200,-976.00000,
,,,-00.000000216000,-976.00000,
,,,-00.000000215800,-976.00000,
,,,-00.000000215600,-976.00000,
,,,-00.000000215400,-976.00000,
,,,-00.000000215200,-968.00000,
,,,-00.000000215000,-968.00000,
,,,-00.000000214800,-968.00000,
,,,-00.000000214600,-960.00000,
,,,-00.000000214400,-960.00000,
,,,-00.000000214200,-952.00000,
,,,-00.000000214000,-952.00000,
,,,-00.000000213800,-952.00000,
,,,-00.000000213600,-944.00000,
,,,-00.000000213400,-944.00000,
,,,-00.000000213200,-936.00000,
,,,-00.000000213000,-936.00000,
,,,-00.000000212800,-928.00000,
,,,-00.000000212600,-920.00000,
,,,-00.000000212400,-912.00000,
,,,-00.000000212200,-904.00000,
,,,-00.000000212000,-904.00000,
,,,-00.000000211800,-904.00000,
,,,-00.000000211600,-904.00000,
,,,-00.000000211400,-896.00000,
,,,-00.000000211200,-896.00000,
,,,-00.000000211000,-896.00000,
,,,-00.000000210800,-896.00000,
,,,-00.000000210600,-896.00000,
,,,-00.000000210400,-896.00000,
,,,-00.000000210200,-888.00000,
,,,-00.000000210000,-888.00000,
,,,-00.000000209800,-880.00000,
,,,-00.000000209600,-880.00000,
,,,-00.000000209400,-872.00000,
,,,-00.000000209200,-864.00000,
,,,-00.000000209000,-864.00000,
,,,-00.000000208800,-864.00000,
,,,-00.000000208600,-856.00000,
,,,-00.000000208400,-856.00000,
,,,-00.000000208200,-848.00000,
,,,-00.000000208000,-848.00000,
,,,-00.000000207800,-848.00000,
,,,-00.000000207600,-840.00000,
,,,-00.000000207400,-840.00000,
,,,-00.000000207200,-832.00000,
,,,-00.000000207000,-832.00000,
,,,-00.000000206800,-824.00000,
,,,-00.000000206600,-816.00000,
,,,-00.000000206400,-808.00000,
,,,-00.000000206200,-800.00000,
,,,-00.000000206000,-800.00000,
,,,-00.000000205800,-792.00000,
,,,-00.000000205600,-792.00000,
,,,-00.000000205400,-792.00000,
,,,-00.000000205200,-784.00000,
,,,-00.000000205000,-784.00000,
,,,-00.000000204800,-784.00000,
,,,-00.000000204600,-776.00000,
,,,-00.000000204400,-776.00000,
,,,-00.000000204200,-768.00000,
,,,-00.000000204000,-768.00000,
,,,-00.000000203800,-768.00000,
,,,-00.000000203600,-760.00000,
,,,-00.000000203400,-760.00000,
,,,-00.000000203200,-752.00000,
,,,-00.000000203000,-752.00000,
,,,-00.000000202800,-752.00000,
,,,-00.000000202600,-744.00000,
,,,-00.000000202400,-744.00000,
,,,-00.000000202200,-736.00000,
,,,-00.000000202000,-736.00000,
,,,-00.000000201800,-736.00000,
,,,-00.000000201600,-736.00000,
,,,-00.000000201400,-736.00000,
,,,-00.000000201200,-728.00000,
,,,-00.000000201000,-728.00000,
,,,-00.000000200800,-728.00000,
,,,-00.000000200600,-728.00000,
,,,-00.000000200400,-728.00000,
,,,-00.000000200200,-720.00000,
,,,-00.000000200000,-720.00000,
,,,-00.000000199800,-712.00000,
,,,-00.000000199600,-712.00000,
,,,-00.000000199400,-704.00000,
,,,-00.000000199200,-696.00000,
,,,-00.000000199000,-696.00000,
,,,-00.000000198800,-688.00000,
,,,-00.000000198600,-688.00000,
,,,-00.000000198400,-688.00000,
,,,-00.000000198200,-680.00000,
,,,-00.000000198000,-680.00000,
,,,-00.000000197800,-680.00000,
,,,-00.000000197600,-680.00000,
,,,-00.000000197400,-680.00000,
,,,-00.000000197200,-672.00000,
,,,-00.000000197000,-672.00000,
,,,-00.000000196800,-672.00000,
,,,-00.000000196600,-664.00000,
,,,-00.000000196400,-664.00000,
,,,-00.000000196200,-656.00000,
,,,-00.000000196000,-656.00000,
,,,-00.000000195800,-656.00000,
,,,-00.000000195600,-656.00000,
,,,-00.000000195400,-656.00000,
,,,-00.000000195200,-648.00000,
,,,-00.000000195000,-648.00000,
,,,-00.000000194800,-648.00000,
,,,-00.000000194600,-640.00000,
,,,-00.000000194400,-640.00000,
,,,-00.000000194200,-632.00000,
,,,-00.000000194000,-632.00000,
,,,-00.000000193800,-624.00000,
,,,-00.000000193600,-624.00000,
,,,-00.000000193400,-624.00000,
,,,-00.000000193200,-616.00000,
,,,-00.000000193000,-616.00000,
,,,-00.000000192800,-616.00000,
,,,-00.000000192600,-616.00000,
,,,-00.000000192400,-616.00000,
,,,-00.000000192200,-616.00000,
,,,-00.000000192000,-616.00000,
,,,-00.000000191800,-616.00000,
,,,-00.000000191600,-608.00000,
,,,-00.000000191400,-608.00000,
,,,-00.000000191200,-600.00000,
,,,-00.000000191000,-600.00000,
,,,-00.000000190800,-600.00000,
,,,-00.000000190600,-600.00000,
,,,-00.000000190400,-600.00000,
,,,-00.000000190200,-600.00000,
,,,-00.000000190000,-600.00000,
,,,-00.000000189800,-600.00000,
,,,-00.000000189600,-600.00000,
,,,-00.000000189400,-600.00000,
,,,-00.000000189200,-592.00000,
,,,-00.000000189000,-592.00000,
,,,-00.000000188800,-592.00000,
,,,-00.000000188600,-592.00000,
,,,-00.000000188400,-592.00000,
,,,-00.000000188200,-584.00000,
,,,-00.000000188000,-584.00000,
,,,-00.000000187800,-584.00000,
,,,-00.000000187600,-584.00000,
,,,-00.000000187400,-584.00000,
,,,-00.000000187200,-576.00000,
,,,-00.000000187000,-576.00000,
,,,-00.000000186800,-576.00000,
,,,-00.000000186600,-576.00000,
,,,-00.000000186400,-576.00000,
,,,-00.000000186200,-576.00000,
,,,-00.000000186000,-576.00000,
,,,-00.000000185800,-576.00000,
,,,-00.000000185600,-576.00000,
,,,-00.000000185400,-576.00000,
,,,-00.000000185200,-576.00000,
,,,-00.000000185000,-576.00000,
,,,-00.000000184800,-576.00000,
,,,-00.000000184600,-576.00000,
,,,-00.000000184400,-576.00000,
,,,-00.000000184200,-568.00000,
,,,-00.000000184000,-568.00000,
,,,-00.000000183800,-568.00000,
,,,-00.000000183600,-568.00000,
,,,-00.000000183400,-568.00000,
,,,-00.000000183200,-568.00000,
,,,-00.000000183000,-568.00000,
,,,-00.000000182800,-568.00000,
,,,-00.000000182600,-568.00000,
,,,-00.000000182400,-568.00000,
,,,-00.000000182200,-568.00000,
,,,-00.000000182000,-568.00000,
,,,-00.000000181800,-568.00000,
,,,-00.000000181600,-568.00000,
,,,-00.000000181400,-568.00000,
,,,-00.000000181200,-568.00000,
,,,-00.000000181000,-568.00000,
,,,-00.000000180800,-568.00000,
,,,-00.000000180600,-568.00000,
,,,-00.000000180400,-568.00000,
,,,-00.000000180200,-568.00000,
,,,-00.000000180000,-568.00000,
