V52-Signale-auf-Leitungen/Oszilloskop/ALL0040/F0040MTH.CSV

Record Length,1.024000e+03,,          0.00000,   6.23090,
Sample Interval,4.882813e+03,,       4882.81250,   3.43090,
Trigger Point,0.000000000000e+00,,       9765.62500, -60.96910,
,,,      14648.43750, -51.76910,
,,,      19531.25000, -47.76910,
,,,      24414.06250, -48.56910,
Source,MATH,,      29296.87500, -50.96910,
Vertical Units,dB,,      34179.68750, -59.76910,
Vertical Scale,1.000000e+01,,      39062.50000, -59.76910,
Vertical Offset,0.000000e+00,,      43945.31250, -57.36910,
Horizontal Units,Hz,,      48828.12500, -59.76910,
Horizontal Scale,5.000000e+05,,      53710.93750, -60.96910,
Pt Fmt,Y,,      58593.75000, -59.76910,
Yzero,-2.096910e+01,,      63476.56250, -60.96910,
Probe Atten,1.000000e+00,,      68359.37500, -60.96910,
Model Number,TDS1001B,,      73242.18750, -59.76910,
Serial Number,C051164,,      78125.00000, -59.76910,
Firmware Version,FV:v22.01,,      83007.81250, -59.76910,
,,,87890.62500, -60.96910,
,,,92773.43750, -60.96910,
,,,97656.25000, -55.76910,
,,,102539.06250, -52.16910,
,,,107421.87500, -60.96910,
,,,112304.68750, -57.76910,
,,,117187.50000, -57.76910,
,,,122070.31250, -53.76910,
,,,126953.12500, -54.56910,
,,,131835.93750, -55.76910,
,,,136718.75000, -59.76910,
,,,141601.56250, -59.76910,
,,,146484.37500, -60.96910,
,,,151367.18750, -60.96910,
,,,156250.00000, -59.76910,
,,,161132.81250, -59.76910,
,,,166015.62500, -60.96910,
,,,170898.43750, -60.96910,
,,,175781.25000, -55.76910,
,,,180664.06250, -50.96910,
,,,185546.87500, -54.56910,
,,,190429.68750, -59.76910,
,,,195312.50000, -60.96910,
,,,200195.31250, -48.16910,
,,,205078.12500, -55.76910,
,,,209960.93750, -36.16910,
,,,214843.75000,  -5.36910,
,,,219726.56250,  -0.16910,
,,,224609.37500,  -7.36910,
,,,229492.18750, -40.16910,
,,,234375.00000, -47.76910,
,,,239257.81250, -59.76910,
,,,244140.62500, -53.76910,
,,,249023.43750, -60.96910,
,,,253906.25000, -60.96910,
,,,258789.06250, -56.96910,
,,,263671.87500, -56.96910,
,,,268554.68750, -59.76910,
,,,273437.50000, -59.76910,
,,,278320.31250, -59.76910,
,,,283203.12500, -60.96910,
,,,288085.93750, -56.96910,
,,,292968.75000, -57.36910,
,,,297851.56250, -52.96910,
,,,302734.37500, -52.96910,
,,,307617.18750, -52.16910,
,,,312500.00000, -52.96910,
,,,317382.81250, -57.76910,
,,,322265.62500, -59.76910,
,,,327148.43750, -60.96910,
,,,332031.25000, -59.76910,
,,,336914.06250, -60.96910,
,,,341796.87500, -60.96910,
,,,346679.68750, -59.76910,
,,,351562.50000, -55.76910,
,,,356445.31250, -59.76910,
,,,361328.12500, -60.96910,
,,,366210.93750, -60.96910,
,,,371093.75000, -60.96910,
,,,375976.56250, -60.96910,
,,,380859.37500, -60.96910,
,,,385742.18750, -54.56910,
,,,390625.00000, -56.96910,
,,,395507.81250, -59.76910,
,,,400390.62500, -52.16910,
,,,405273.43750, -49.36910,
,,,410156.25000, -53.76910,
,,,415039.06250, -60.96910,
,,,419921.87500, -54.96910,
,,,424804.68750, -53.76910,
,,,429687.50000, -59.76910,
,,,434570.31250, -60.96910,
,,,439453.12500, -57.36910,
,,,444335.93750, -60.96910,
,,,449218.75000, -59.76910,
,,,454101.56250, -60.96910,
,,,458984.37500, -56.96910,
,,,463867.18750, -59.76910,
,,,468750.00000, -60.96910,
,,,473632.81250, -60.96910,
,,,478515.62500, -60.96910,
,,,483398.43750, -56.96910,
,,,488281.25000, -54.96910,
,,,493164.06250, -54.56910,
,,,498046.87500, -56.96910,
,,,502929.68750, -56.96910,
,,,507812.50000, -55.76910,
,,,512695.31250, -60.96910,
,,,517578.12500, -60.96910,
,,,522460.93750, -60.96910,
,,,527343.75000, -60.96910,
,,,532226.56250, -60.96910,
,,,537109.37500, -60.96910,
,,,541992.18750, -57.76910,
,,,546875.00000, -60.96910,
,,,551757.81250, -60.96910,
,,,556640.62500, -59.76910,
,,,561523.43750, -60.96910,
,,,566406.25000, -55.76910,
,,,571289.06250, -60.96910,
,,,576171.87500, -60.96910,
,,,581054.68750, -60.96910,
,,,585937.50000, -60.96910,
,,,590820.31250, -59.76910,
,,,595703.12500, -60.96910,
,,,600585.93750, -48.96910,
,,,605468.75000, -42.16910,
,,,610351.56250, -44.56910,
,,,615234.37500, -57.76910,
,,,620117.18750, -60.96910,
,,,625000.00000, -55.76910,
,,,629882.81250, -59.76910,
,,,634765.62500, -59.76910,
,,,639648.43750, -54.56910,
,,,644531.25000, -51.36910,
,,,649414.06250, -35.36910,
,,,654296.87500, -13.76910,
,,,659179.68750, -10.56910,
,,,664062.50000, -20.16910,
,,,668945.31250, -41.36910,
,,,673828.12500, -55.76910,
,,,678710.93750, -59.76910,
,,,683593.75000, -53.76910,
,,,688476.56250, -55.76910,
,,,693359.37500, -60.96910,
,,,698242.18750, -60.96910,
,,,703125.00000, -52.96910,
,,,708007.81250, -49.76910,
,,,712890.62500, -54.56910,
,,,717773.43750, -60.96910,
,,,722656.25000, -60.96910,
,,,727539.06250, -60.96910,
,,,732421.87500, -56.96910,
,,,737304.68750, -59.76910,
,,,742187.50000, -60.96910,
,,,747070.31250, -54.56910,
,,,751953.12500, -52.96910,
,,,756835.93750, -59.76910,
,,,761718.75000, -60.96910,
,,,766601.56250, -56.96910,
,,,771484.37500, -60.96910,
,,,776367.18750, -59.76910,
,,,781250.00000, -56.96910,
,,,786132.81250, -60.96910,
,,,791015.62500, -60.96910,
,,,795898.43750, -60.96910,
,,,800781.25000, -59.76910,
,,,805664.06250, -52.96910,
,,,810546.87500, -54.56910,
,,,815429.68750, -60.96910,
,,,820312.50000, -56.96910,
,,,825195.31250, -50.56910,
,,,830078.12500, -56.96910,
,,,834960.93750, -60.96910,
,,,839843.75000, -60.96910,
,,,844726.56250, -60.96910,
,,,849609.37500, -60.96910,
,,,854492.18750, -60.96910,
,,,859375.00000, -60.96910,
,,,864257.81250, -59.76910,
,,,869140.62500, -60.96910,
,,,874023.43750, -52.96910,
,,,878906.25000, -51.36910,
,,,883789.06250, -57.36910,
,,,888671.87500, -60.96910,
,,,893554.68750, -60.96910,
,,,898437.50000, -59.76910,
,,,903320.31250, -59.76910,
,,,908203.12500, -51.76910,
,,,913085.93750, -50.96910,
,,,917968.75000, -54.96910,
,,,922851.56250, -60.96910,
,,,927734.37500, -59.76910,
,,,932617.18750, -60.96910,
,,,937500.00000, -55.76910,
,,,942382.81250, -53.76910,
,,,947265.62500, -60.96910,
,,,952148.43750, -60.96910,
,,,957031.25000, -60.96910,
,,,961914.06250, -59.76910,
,,,966796.87500, -57.76910,
,,,971679.68750, -59.76910,
,,,976562.50000, -59.76910,
,,,981445.31250, -59.76910,
,,,986328.12500, -60.96910,
,,,991210.93750, -53.76910,
,,,996093.75000, -56.96910,
,,,1000976.56250, -60.96910,
,,,1005859.37500, -53.76910,
,,,1010742.18750, -54.56910,
,,,1015625.00000, -60.96910,
,,,1020507.81250, -60.96910,
,,,1025390.62500, -60.96910,
,,,1030273.43750, -60.96910,
,,,1035156.25000, -60.96910,
,,,1040039.06250, -59.76910,
,,,1044921.87500, -60.96910,
,,,1049804.68750, -60.96910,
,,,1054687.50000, -60.96910,
,,,1059570.31250, -60.96910,
,,,1064453.12500, -60.96910,
,,,1069335.93750, -60.96910,
,,,1074218.75000, -60.96910,
,,,1079101.56250, -56.96910,
,,,1083984.37500, -50.56910,
,,,1088867.18750, -34.96910,
,,,1093750.00000, -17.76910,
,,,1098632.81250, -16.16910,
,,,1103515.62500, -28.16910,
,,,1108398.43750, -44.96910,
,,,1113281.25000, -53.76910,
,,,1118164.06250, -57.76910,
,,,1123046.87500, -60.96910,
,,,1127929.68750, -54.56910,
,,,1132812.50000, -60.96910,
,,,1137695.31250, -60.96910,
,,,1142578.12500, -60.96910,
,,,1147460.93750, -59.76910,
,,,1152343.75000, -60.96910,
,,,1157226.56250, -60.96910,
,,,1162109.37500, -60.96910,
,,,1166992.18750, -59.76910,
,,,1171875.00000, -60.96910,
,,,1176757.81250, -59.76910,
,,,1181640.62500, -60.96910,
,,,1186523.43750, -55.76910,
,,,1191406.25000, -57.36910,
,,,1196289.06250, -59.76910,
,,,1201171.87500, -60.96910,
,,,1206054.68750, -57.36910,
,,,1210937.50000, -46.16910,
,,,1215820.31250, -48.96910,
,,,1220703.12500, -60.96910,
,,,1225585.93750, -60.96910,
,,,1230468.75000, -60.96910,
,,,1235351.56250, -60.96910,
,,,1240234.37500, -60.96910,
,,,1245117.18750, -55.76910,
,,,1250000.00000, -60.96910,
,,,1254882.81250, -60.96910,
,,,1259765.62500, -56.96910,
,,,1264648.43750, -54.56910,
,,,1269531.25000, -60.96910,
,,,1274414.06250, -60.96910,
,,,1279296.87500, -60.96910,
,,,1284179.68750, -60.96910,
,,,1289062.50000, -59.76910,
,,,1293945.31250, -60.96910,
,,,1298828.12500, -60.96910,
,,,1303710.93750, -60.96910,
,,,1308593.75000, -60.96910,
,,,1313476.56250, -57.76910,
,,,1318359.37500, -57.36910,
,,,1323242.18750, -60.96910,
,,,1328125.00000, -60.96910,
,,,1333007.81250, -60.96910,
,,,1337890.62500, -60.96910,
,,,1342773.43750, -60.96910,
,,,1347656.25000, -60.96910,
,,,1352539.06250, -59.76910,
,,,1357421.87500, -60.96910,
,,,1362304.68750, -60.96910,
,,,1367187.50000, -59.76910,
,,,1372070.31250, -60.96910,
,,,1376953.12500, -60.96910,
,,,1381835.93750, -60.96910,
,,,1386718.75000, -57.36910,
,,,1391601.56250, -60.96910,
,,,1396484.37500, -60.96910,
,,,1401367.18750, -60.96910,
,,,1406250.00000, -60.96910,
,,,1411132.81250, -60.96910,
,,,1416015.62500, -60.96910,
,,,1420898.43750, -60.96910,
,,,1425781.25000, -56.96910,
,,,1430664.06250, -53.76910,
,,,1435546.87500, -57.76910,
,,,1440429.68750, -60.96910,
,,,1445312.50000, -59.76910,
,,,1450195.31250, -59.76910,
,,,1455078.12500, -55.76910,
,,,1459960.93750, -59.76910,
,,,1464843.75000, -60.96910,
,,,1469726.56250, -60.96910,
,,,1474609.37500, -60.96910,
,,,1479492.18750, -60.96910,
,,,1484375.00000, -60.96910,
,,,1489257.81250, -60.96910,
,,,1494140.62500, -60.96910,
,,,1499023.43750, -60.96910,
,,,1503906.25000, -60.96910,
,,,1508789.06250, -59.76910,
,,,1513671.87500, -52.16910,
,,,1518554.68750, -60.96910,
,,,1523437.50000, -49.76910,
,,,1528320.31250, -32.96910,
,,,1533203.12500, -19.76910,
,,,1538085.93750, -20.16910,
,,,1542968.75000, -34.96910,
,,,1547851.56250, -50.56910,
,,,1552734.37500, -57.76910,
,,,1557617.18750, -60.96910,
,,,1562500.00000, -59.76910,
,,,1567382.81250, -60.96910,
,,,1572265.62500, -56.96910,
,,,1577148.43750, -59.76910,
,,,1582031.25000, -60.96910,
,,,1586914.06250, -60.96910,
,,,1591796.87500, -60.96910,
,,,1596679.68750, -59.76910,
,,,1601562.50000, -60.96910,
,,,1606445.31250, -60.96910,
,,,1611328.12500, -60.96910,
,,,1616210.93750, -55.76910,
,,,1621093.75000, -56.96910,
,,,1625976.56250, -52.96910,
,,,1630859.37500, -57.76910,
,,,1635742.18750, -60.96910,
,,,1640625.00000, -59.76910,
,,,1645507.81250, -60.96910,
,,,1650390.62500, -60.96910,
,,,1655273.43750, -60.96910,
,,,1660156.25000, -60.96910,
,,,1665039.06250, -60.96910,
,,,1669921.87500, -60.96910,
,,,1674804.68750, -60.96910,
,,,1679687.50000, -60.96910,
,,,1684570.31250, -60.96910,
,,,1689453.12500, -60.96910,
,,,1694335.93750, -57.76910,
,,,1699218.75000, -54.56910,
,,,1704101.56250, -60.96910,
,,,1708984.37500, -60.96910,
,,,1713867.18750, -59.76910,
,,,1718750.00000, -60.96910,
,,,1723632.81250, -59.76910,
,,,1728515.62500, -59.76910,
,,,1733398.43750, -60.96910,
,,,1738281.25000, -60.96910,
,,,1743164.06250, -56.96910,
,,,1748046.87500, -54.56910,
,,,1752929.68750, -50.56910,
,,,1757812.50000, -51.76910,
,,,1762695.31250, -60.96910,
,,,1767578.12500, -60.96910,
,,,1772460.93750, -59.76910,
,,,1777343.75000, -60.96910,
,,,1782226.56250, -60.96910,
,,,1787109.37500, -60.96910,
,,,1791992.18750, -55.76910,
,,,1796875.00000, -60.96910,
,,,1801757.81250, -60.96910,
,,,1806640.62500, -60.96910,
,,,1811523.43750, -60.96910,
,,,1816406.25000, -51.76910,
,,,1821289.06250, -52.16910,
,,,1826171.87500, -56.96910,
,,,1831054.68750, -57.76910,
,,,1835937.50000, -60.96910,
,,,1840820.31250, -57.76910,
,,,1845703.12500, -59.76910,
,,,1850585.93750, -60.96910,
,,,1855468.75000, -60.96910,
,,,1860351.56250, -60.96910,
,,,1865234.37500, -60.96910,
,,,1870117.18750, -60.96910,
,,,1875000.00000, -60.96910,
,,,1879882.81250, -55.76910,
,,,1884765.62500, -48.16910,
,,,1889648.43750, -53.76910,
,,,1894531.25000, -56.96910,
,,,1899414.06250, -57.76910,
,,,1904296.87500, -60.96910,
,,,1909179.68750, -59.76910,
,,,1914062.50000, -60.96910,
,,,1918945.31250, -60.96910,
,,,1923828.12500, -60.96910,
,,,1928710.93750, -60.96910,
,,,1933593.75000, -60.96910,
,,,1938476.56250, -60.96910,
,,,1943359.37500, -60.96910,
,,,1948242.18750, -60.96910,
,,,1953125.00000, -60.96910,
,,,1958007.81250, -60.96910,
,,,1962890.62500, -49.76910,
,,,1967773.43750, -32.96910,
,,,1972656.25000, -22.16910,
,,,1977539.06250, -24.16910,
,,,1982421.87500, -42.96910,
,,,1987304.68750, -60.96910,
,,,1992187.50000, -56.96910,
,,,1997070.31250, -60.96910,
,,,2001953.12500, -60.96910,
,,,2006835.93750, -60.96910,
,,,2011718.75000, -60.96910,
,,,2016601.56250, -60.96910,
,,,2021484.37500, -56.96910,
,,,2026367.18750, -54.56910,
,,,2031250.00000, -59.76910,
,,,2036132.81250, -57.36910,
,,,2041015.62500, -56.96910,
,,,2045898.43750, -60.96910,
,,,2050781.25000, -59.76910,
,,,2055664.06250, -60.96910,
,,,2060546.87500, -56.96910,
,,,2065429.68750, -54.96910,
,,,2070312.50000, -57.76910,
,,,2075195.31250, -60.96910,
,,,2080078.12500, -60.96910,
,,,2084960.93750, -59.76910,
,,,2089843.75000, -59.76910,
,,,2094726.56250, -57.76910,
,,,2099609.37500, -56.96910,
,,,2104492.18750, -57.76910,
,,,2109375.00000, -60.96910,
,,,2114257.81250, -60.96910,
,,,2119140.62500, -57.76910,
,,,2124023.43750, -59.76910,
,,,2128906.25000, -60.96910,
,,,2133789.06250, -60.96910,
,,,2138671.87500, -60.96910,
,,,2143554.68750, -60.96910,
,,,2148437.50000, -60.96910,
,,,2153320.31250, -60.96910,
,,,2158203.12500, -60.96910,
,,,2163085.93750, -60.96910,
,,,2167968.75000, -60.96910,
,,,2172851.56250, -57.36910,
,,,2177734.37500, -59.76910,
,,,2182617.18750, -60.96910,
,,,2187500.00000, -57.36910,
,,,2192382.81250, -51.36910,
,,,2197265.62500, -56.96910,
,,,2202148.43750, -59.76910,
,,,2207031.25000, -56.96910,
,,,2211914.06250, -60.96910,
,,,2216796.87500, -60.96910,
,,,2221679.68750, -56.96910,
,,,2226562.50000, -56.96910,
,,,2231445.31250, -60.96910,
,,,2236328.12500, -60.96910,
,,,2241210.93750, -60.96910,
,,,2246093.75000, -60.96910,
,,,2250976.56250, -60.96910,
,,,2255859.37500, -60.96910,
,,,2260742.18750, -60.96910,
,,,2265625.00000, -60.96910,
,,,2270507.81250, -60.96910,
,,,2275390.62500, -60.96910,
,,,2280273.43750, -60.96910,
,,,2285156.25000, -60.96910,
,,,2290039.06250, -60.96910,
,,,2294921.87500, -60.96910,
,,,2299804.68750, -59.76910,
,,,2304687.50000, -60.96910,
,,,2309570.31250, -60.96910,
,,,2314453.12500, -60.96910,
,,,2319335.93750, -48.96910,
,,,2324218.75000, -48.16910,
,,,2329101.56250, -60.96910,
,,,2333984.37500, -60.96910,
,,,2338867.18750, -59.76910,
,,,2343750.00000, -60.96910,
,,,2348632.81250, -60.96910,
,,,2353515.62500, -60.96910,
,,,2358398.43750, -60.96910,
,,,2363281.25000, -60.96910,
,,,2368164.06250, -60.96910,
,,,2373046.87500, -60.96910,
,,,2377929.68750, -57.36910,
,,,2382812.50000, -55.76910,
,,,2387695.31250, -59.76910,
,,,2392578.12500, -60.96910,
,,,2397460.93750, -60.96910,
,,,2402343.75000, -59.76910,
,,,2407226.56250, -32.56910,
,,,2412109.37500, -23.76910,
,,,2416992.18750, -27.76910,
,,,2421875.00000, -50.96910,
,,,2426757.81250, -55.76910,
,,,2431640.62500, -60.96910,
,,,2436523.43750, -60.96910,
,,,2441406.25000, -56.96910,
,,,2446289.06250, -60.96910,
,,,2451171.87500, -60.96910,
,,,2456054.68750, -60.96910,
,,,2460937.50000, -60.96910,
,,,2465820.31250, -60.96910,
,,,2470703.12500, -60.96910,
,,,2475585.93750, -60.96910,
,,,2480468.75000, -60.96910,
,,,2485351.56250, -60.96910,
,,,2490234.37500, -60.96910,
,,,2495117.18750, -60.96910,
,,,2500000.00000, -60.96910,
,,,2504882.81250, -59.76910,
,,,2509765.62500, -60.96910,
,,,2514648.43750, -59.76910,
,,,2519531.25000, -59.76910,
,,,2524414.06250, -54.56910,
,,,2529296.87500, -59.76910,
,,,2534179.68750, -57.76910,
,,,2539062.50000, -54.56910,
,,,2543945.31250, -59.76910,
,,,2548828.12500, -57.76910,
,,,2553710.93750, -59.76910,
,,,2558593.75000, -60.96910,
,,,2563476.56250, -60.96910,
,,,2568359.37500, -60.96910,
,,,2573242.18750, -60.96910,
,,,2578125.00000, -60.96910,
,,,2583007.81250, -60.96910,
,,,2587890.62500, -56.96910,
,,,2592773.43750, -60.96910,
,,,2597656.25000, -60.96910,
,,,2602539.06250, -60.96910,
,,,2607421.87500, -57.36910,
,,,2612304.68750, -59.76910,
,,,2617187.50000, -56.96910,
,,,2622070.31250, -55.76910,
,,,2626953.12500, -56.96910,
,,,2631835.93750, -53.76910,
,,,2636718.75000, -60.96910,
,,,2641601.56250, -55.76910,
,,,2646484.37500, -56.96910,
,,,2651367.18750, -60.96910,
,,,2656250.00000, -60.96910,
,,,2661132.81250, -60.96910,
,,,2666015.62500, -60.96910,
,,,2670898.43750, -59.76910,
,,,2675781.25000, -60.96910,
,,,2680664.06250, -59.76910,
,,,2685546.87500, -60.96910,
,,,2690429.68750, -60.96910,
,,,2695312.50000, -59.76910,
,,,2700195.31250, -60.96910,
,,,2705078.12500, -59.76910,
,,,2709960.93750, -60.96910,
,,,2714843.75000, -60.96910,
,,,2719726.56250, -59.76910,
,,,2724609.37500, -60.96910,
,,,2729492.18750, -60.96910,
,,,2734375.00000, -60.96910,
,,,2739257.81250, -60.96910,
,,,2744140.62500, -60.96910,
,,,2749023.43750, -60.96910,
,,,2753906.25000, -57.76910,
,,,2758789.06250, -46.96910,
,,,2763671.87500, -47.36910,
,,,2768554.68750, -60.96910,
,,,2773437.50000, -59.76910,
,,,2778320.31250, -54.56910,
,,,2783203.12500, -60.96910,
,,,2788085.93750, -60.96910,
,,,2792968.75000, -60.96910,
,,,2797851.56250, -60.96910,
,,,2802734.37500, -60.96910,
,,,2807617.18750, -56.96910,
,,,2812500.00000, -56.96910,
,,,2817382.81250, -54.96910,
,,,2822265.62500, -60.96910,
,,,2827148.43750, -56.96910,
,,,2832031.25000, -59.76910,
,,,2836914.06250, -60.96910,
,,,2841796.87500, -60.96910,
,,,2846679.68750, -31.76910,
,,,2851562.50000, -25.76910,
,,,2856445.31250, -31.36910,
,,,2861328.12500, -60.96910,
,,,2866210.93750, -60.96910,
,,,2871093.75000, -57.36910,
,,,2875976.56250, -52.96910,
,,,2880859.37500, -52.96910,
,,,2885742.18750, -56.96910,
,,,2890625.00000, -56.96910,
,,,2895507.81250, -60.96910,
,,,2900390.62500, -60.96910,
,,,2905273.43750, -57.76910,
,,,2910156.25000, -60.96910,
,,,2915039.06250, -56.96910,
,,,2919921.87500, -60.96910,
,,,2924804.68750, -59.76910,
,,,2929687.50000, -54.56910,
,,,2934570.31250, -54.56910,
,,,2939453.12500, -52.96910,
,,,2944335.93750, -52.96910,
,,,2949218.75000, -56.96910,
,,,2954101.56250, -57.76910,
,,,2958984.37500, -59.76910,
,,,2963867.18750, -59.76910,
,,,2968750.00000, -60.96910,
,,,2973632.81250, -59.76910,
,,,2978515.62500, -56.96910,
,,,2983398.43750, -56.96910,
,,,2988281.25000, -60.96910,
,,,2993164.06250, -59.76910,
,,,2998046.87500, -55.76910,
,,,3002929.68750, -53.76910,
,,,3007812.50000, -56.96910,
,,,3012695.31250, -60.96910,
,,,3017578.12500, -60.96910,
,,,3022460.93750, -57.76910,
,,,3027343.75000, -52.16910,
,,,3032226.56250, -48.96910,
,,,3037109.37500, -54.96910,
,,,3041992.18750, -59.76910,
,,,3046875.00000, -60.96910,
,,,3051757.81250, -59.76910,
,,,3056640.62500, -60.96910,
,,,3061523.43750, -60.96910,
,,,3066406.25000, -53.76910,
,,,3071289.06250, -49.76910,
,,,3076171.87500, -51.76910,
,,,3081054.68750, -54.56910,
,,,3085937.50000, -59.76910,
,,,3090820.31250, -60.96910,
,,,3095703.12500, -60.96910,
,,,3100585.93750, -60.96910,
,,,3105468.75000, -54.96910,
,,,3110351.56250, -56.96910,
,,,3115234.37500, -60.96910,
,,,3120117.18750, -60.96910,
,,,3125000.00000, -60.96910,
,,,3129882.81250, -57.76910,
,,,3134765.62500, -60.96910,
,,,3139648.43750, -54.56910,
,,,3144531.25000, -54.56910,
,,,3149414.06250, -59.76910,
,,,3154296.87500, -59.76910,
,,,3159179.68750, -57.36910,
,,,3164062.50000, -57.36910,
,,,3168945.31250, -60.96910,
,,,3173828.12500, -60.96910,
,,,3178710.93750, -60.96910,
,,,3183593.75000, -60.96910,
,,,3188476.56250, -60.96910,
,,,3193359.37500, -53.76910,
,,,3198242.18750, -43.36910,
,,,3203125.00000, -45.36910,
,,,3208007.81250, -60.96910,
,,,3212890.62500, -60.96910,
,,,3217773.43750, -60.96910,
,,,3222656.25000, -60.96910,
,,,3227539.06250, -60.96910,
,,,3232421.87500, -59.76910,
,,,3237304.68750, -60.96910,
,,,3242187.50000, -57.76910,
,,,3247070.31250, -56.96910,
,,,3251953.12500, -57.36910,
,,,3256835.93750, -60.96910,
,,,3261718.75000, -59.76910,
,,,3266601.56250, -55.76910,
,,,3271484.37500, -59.76910,
,,,3276367.18750, -60.96910,
,,,3281250.00000, -54.96910,
,,,3286132.81250, -32.16910,
,,,3291015.62500, -27.76910,
,,,3295898.43750, -35.36910,
,,,3300781.25000, -60.96910,
,,,3305664.06250, -60.96910,
,,,3310546.87500, -60.96910,
,,,3315429.68750, -60.96910,
,,,3320312.50000, -59.76910,
,,,3325195.31250, -54.96910,
